463757	891861	2263.45	884187	2341.15	1.6528e+06	137312	3416.03	19281.8	701719	
580445	342136	294097	625575	185267	1.14635e+06	255558	60007.1	268644	127413	
1.05822e+06	538217	150929	120733	20582.3	44956.2	99944.4	1360.49	1448.25	127415	
451493	1.46249e+06	60288.4	325954	13121.4	464308	2.54845e+06	12313.3	15975.6	261467	
870584	487239	33133.4	558314	70796.3	297430	50320	17815.7	93896.7	107895	
768831	685598	283844	349887	26849	440750	1.245e+06	1876.21	78312.4	92688.3	
536997	882952	91630.6	516724	93233	739827	574898	12525.1	418208	243175	
1.27275e+06	991249	80918.2	453408	99831.2	153308	52720.9	14723.9	9546.02	170286	
506240	728791	905.934	334287	18707.7	556077	2.04333e+06	39375.1	11022.4	248263	
1.78679e+06	2.15348e+06	243666	502963	4496.55	1.88545e+06	2.20811e+06	21664.6	69855.4	222450	
203450	572877	2497.66	26687.8	16276.1	466780	1.43122e+06	3429.4	84640	91440.4	
980232	677183	56329.9	325413	5883.69	215310	181371	37670.2	51752.6	121683	
1.37033e+06	1.72147e+06	36701.6	241947	71352.5	468908	358267	66203.3	3415.14	59785.3	
337913	397671	383256	633703	28430.6	271809	70528.9	21175	3402.82	265136	
366602	166730	236768	1.31984e+06	3423.55	1.23717e+06	81688.9	5211.16	194129	65253.9	
405613	557998	32361.5	215011	12823.5	441778	358424	14216.2	10665.2	263929	
271635	139296	240927	211584	203823	4352.31	631650	26365.9	204337	179017	
842324	1.97042e+06	60413.2	1.89623e+06	15966.2	217520	692019	96356.5	143116	130493	
271071	563351	61774.2	66216.9	22297.1	596084	435676	1876.07	899.549	181795	
990466	189757	109095	158161	3500.45	310009	873657	4982.4	362363	164506	
193420	139881	107029	767128	3086.91	81221.7	11095.6	150217	12643.3	144638	
529567	41920	1.02213e+06	109864	3336.64	369517	328015	973154	529726	174408	
684681	683427	2.84277e+06	229755	38754.1	614988	2.14519e+06	3467.61	424556	116402	
109355	1.18462e+06	15333.9	294020	3434.8	79947.9	172870	121996	233110	164391	
132379	169023	891546	836510	17809.6	385511	295728	1185.66	358608	668935	
72738.1	465068	568180	644445	162490	365483	45312.4	57620.6	1715.81	133402	
488040	568964	150179	1.93153e+06	44455.6	926.002	840045	455526	10767.1	77838.5	
269498	745262	548884	514861	13931.1	20635	1.08082e+06	436169	120468	227078	
43887.5	1.58256e+06	357259	830714	11987.8	20340.1	44088.5	196204	128219	263566	
1.06358e+06	1.89904e+06	1.63062e+06	1.08347e+06	184855	637014	1.16805e+06	465948	596673	152179	
116124	576389	32691	896628	58418	94264.4	111022	252636	925.598	126927	
149718	203406	436609	936262	21353.9	9973.03	629996	3470.55	255254	167544	
439926	810380	264006	613088	33543.7	94629.3	420430	216267	12004.7	92319.5	
55229.4	175569	384304	1.46507e+06	2210.97	102499	130363	27950.5	188243	39054.6	
528910	1.30882e+06	198437	1.2708e+06	21054.5	3202.21	192769	1673.69	176195	169422	
579744	1.36198e+06	2945.78	1.1648e+06	1315.5	99168.1	304947	58443.6	19353.4	50349.7	
158040	835285	66025.4	1.47033e+06	29709	82134.6	271198	79367.4	290635	141029	
376912	217027	546112	1.73717e+06	16877.6	4726.28	3.57416e+06	149224	5095.56	249583	
1.09885e+06	76020	213097	510228	37453.1	5403.91	355394	162006	51074.5	105998	
76173.5	169976	139436	288668	48062.9	67877	438199	568786	35874.9	98098.4	
264903	395430	501561	92241.9	66237.1	1458.13	2.82048e+06	131817	102020	102034	
149503	829730	74944.1	1.69433e+06	3113.23	94778.3	228925	619220	91755	207858	
36515.2	432950	55261.4	3.40965e+06	19451.5	1567.1	269295	232528	385039	32000.2	
80520.7	3.94714e+06	288520	382867	25209.7	173875	2.22804e+06	9980.81	5641.39	160681	
129621	356926	191468	19183.9	15405.7	36069	161523	167418	21521.7	140807	
83222.7	1.90551e+06	1.53758e+06	1.86961e+06	2497.74	8560.99	1.6565e+06	47833.6	29401.8	165303	
465736	319039	524280	530484	11431.7	10146.8	742226	63737	38225.7	169945	
84083.1	2.53199e+06	383769	188998	3460.94	61990.9	342864	306931	231531	290234	
768921	800599	155573	1.1266e+06	206361	53861	1.52606e+06	98828.8	179250	78299.9	
697361	315428	115257	1.26377e+06	10927.9	1519.29	44412.9	28183.3	31335.2	110355	
38137.5	476173	353261	685422	16022	44828.1	726571	49396	7261.63	143338	
174327	230986	243261	109890	1077.68	1042.47	1.79522e+06	3960.41	376301	180571	
589100	832023	191122	205792	52159.3	631672	933967	114250	19484.8	237726	
164490	385193	15017.4	332102	2973.67	89726.6	111198	25127.2	13442.7	273815	
2.43608e+06	787395	143923	1.18616e+06	62453.1	557335	159389	372060	910.076	268588	
1.17605e+06	2.38496e+06	275214	414042	864.855	29949.2	764960	252487	3546.66	181690	
1.64094e+06	423765	883093	194483	1808.02	163225	12967	84505	92183.4	38189.2	
898319	409220	29740.5	91851.1	10443.4	2484.07	667667	124198	1306.86	236258	
2412.85	631047	2482.42	1.40727e+06	1284.71	10928.1	534570	555637	3541.34	110562	
198991	1.013e+06	183392	129931	2593.41	844.231	156235	701974	3579.96	110697	
125723	1.58388e+06	232614	139529	42521.6	47507.9	515272	5206.26	866.551	252414	
305437	549444	252968	183675	11144.7	50165.6	246590	368444	31769.7	121436	
730235	315365	55691	808320	36199.2	3185.89	1.07897e+06	105603	4173.31	121666	
514027	846148	332333	205644	30090.4	17836.3	147494	419433	31734.2	281608	
668018	266972	606450	240452	3476.07	16612.4	1.11721e+06	23544.2	3536.72	69780	
465792	245863	3591.41	289888	54286.3	120105	1.76193e+06	19440.2	20304.7	197787	
2.29469e+06	129544	563467	226699	38604	3234.08	962258	96154	10523.3	80394.4	
30118	213483	1983.99	389943	57873.8	223563	488175	54709.8	112498	136157	
1.07062e+06	748070	836583	518357	5208.88	232337	128987	13026.8	164848	197455	
685192	531197	36661.3	33606.6	1588.98	3630.85	23280.8	53728.2	36338.2	87534.3	
85927.7	211077	15675.7	312338	10498.3	15939.3	463725	3715.62	861.697	162252	
1.39352e+06	762079	250344	113342	22772.8	13766.1	357565	287454	112563	115308	
69270	861474	751962	331797	37541.1	59456.2	53336.9	57714.3	125546	142002	
1.15478e+06	559787	4118.85	343935	2562.35	13972.8	4.67577e+06	41993.7	41471	179491	
611208	479511	320553	44523.4	3434.09	3958.99	31868.8	244591	141665	244470	
416970	465574	202712	1.18449e+06	19552.3	9586.78	471327	49022.6	19423.7	95971.1	
405184	214896	2662.73	305359	16622.4	268244	427702	120776	389362	210329	
582799	694329	234603	129300	80413.5	1144.64	1.02029e+06	233082	85071.4	116904	
134018	793085	220947	93690.6	4837.26	4439.66	69533	152784	19181	175627	
3.50719e+06	662624	354974	20876.5	1817.32	2138.4	1.27087e+06	91115.4	34213.6	130054	
640156	944426	4221.29	419166	3494.98	19612.9	1.33352e+06	84351.8	112895	232421	
442077	2.53427e+06	588045	77496.3	3495.95	248346	46892.9	3933.26	134228	151392	
750440	383985	16678.7	271477	41920.3	9720.19	1.38098e+06	59225.4	21497.8	221462	
542656	561175	204633	171073	55070.5	3437.14	681070	34719.7	3027.6	116465	
553920	292791	85140.9	192688	1810.6	37123.8	673481	67298.7	32052.8	203811	
546981	136485	18834.6	362485	13852.3	8674.2	277516	110190	48264.6	281451	
279472	174305	9534.63	920273	879.988	1175.66	375228	41864.9	4659.84	97074.4	
940652	174432	145606	111786	7491.26	46480.3	724623	3735.24	4362.66	321470	
16439.8	46994.8	80362.9	32430.3	36791.3	157266	619450	13913.1	2591.87	94764.5	
367393	498063	139805	143915	3503.22	2402.35	886554	132140	16274.3	144451	
122068	772802	22597.3	309417	59371.9	7037.06	518029	164828	33034.2	167616	
955525	527910	445463	83592.8	3504.85	115905	1.44062e+06	1828.18	19439.3	120939	
409744	353625	87487.2	79768.9	11095.5	2439.82	1.70668e+06	17417.7	23772.5	210870	
2892.51	244804	173824	556641	5117.93	8061.52	411172	197095	365892	115443	
1.36212e+06	299550	121753	258631	1137.02	233745	25874.7	161324	263358	127375	
1.01579e+06	251358	223501	678424	11874.9	132103	7333.63	8484	3609.85	106797	
1.51928e+06	256854	38427.5	678479	37464.9	2090.24	78631.3	26304.4	13814.6	139078	
232440	177019	64411.9	117766	853.877	13304.8	90382.5	176186	83097.2	64279.8	
453405	327944	106436	102276	42416.5	1662.65	420219	557918	1130.38	162445	
827601	851762	96232.4	177958	3101.24	1064.4	217797	334635	3147.3	144096	
875428	109038	88318.4	45670	942.272	17816.6	219821	140741	279865	122430	
644478	97043.2	106411	147340	29299.2	3685.32	99786.4	171514	3738.79	189719	
235885	162215	269864	339433	884.666	976.095	1.58528e+06	31759.3	29789.2	233268	
1.37621e+06	576111	223669	154262	2476.21	130834	45266	443070	64410.3	187529	
109407	545794	332156	133585	944.966	963.69	50543.1	3936.17	27769.1	111162	
758053	415248	282980	155864	4795.39	1290.99	183500	998.407	20336.7	154091	
2.26694e+06	314898	37225.6	84382.9	17771.9	19023.5	29696.1	935.624	138968	157500	
712877	138783	29795.6	303411	3523.55	139831	271216	29883.2	170743	83178.7	
456312	110720	2385.43	615047	37727.8	2246.86	929535	17551.8	195068	123901	
353904	46982.9	3308.61	312683	9328.48	14432.1	1.48137e+06	235614	79060.9	157223	
774818	617357	3777.46	97266.4	944.569	40124.1	201543	46332.8	30972.8	170373	
579860	1.13987e+06	69271.3	185091	4172.14	112636	783534	126709	3235.31	190051	
1.83993e+06	688028	19833.5	38768.1	342951	1087.34	61268.6	12018.9	45386.4	117102	
21174.3	105829	199828	147049	44160.1	5057.43	449396	27600.2	1425.82	112582	
258557	134597	3096.66	241088	1609.62	1014.42	333982	35849.5	6029.02	173975	
182593	299669	270800	45012.4	13472.4	2099.76	1.03272e+06	205916	2978.39	123274	
233158	192410	13222.8	338914	1860.23	5204.6	413473	77378.8	361314	186616	
425832	457518	77344.8	62568.4	3533.78	11984.1	331076	70608.4	38460.7	138053	
40431.5	389484	36926.7	106018	19944	19588.3	259018	4204.84	1102.2	160409	
165886	106611	61276.2	308951	24665.9	54851.3	462847	48944	266553	105597	
497332	359070	354119	74885.5	1124.72	469225	78337.5	58512.5	2245.65	93303.9	
1.27303e+06	120575	3580.79	86729.6	3539.66	882.467	578390	7936.69	138850	100109	
547484	827036	93304.3	271316	2776.49	24629.2	11010.7	209021	42067.5	181256	
718299	452250	48472.1	215201	1518.1	14347.9	466406	4070.34	495935	183946	
1.31615e+06	546786	109667	27002.5	3754.81	25597.3	220541	180001	97368.4	166388	
2.29965e+06	383200	153208	163890	23577.3	1286.47	71858	4039.1	116180	139535	
1.84706e+06	454661	41068.9	141013	3587.96	1553.39	967913	216164	21459.2	218319	
770110	103363	50337.4	112446	2837.78	117612	278911	4089.4	134993	135900	
2.09322e+06	131974	271916	68647.3	1042.87	32334.7	255363	4029.44	43993.1	213635	
2.94588e+06	207593	35488.5	44190.3	30249.3	4739.7	2145.03	4097.38	58832.3	233703	
111730	113090	26832.9	305306	18368.2	295249	1.6682e+06	29167	121510	148391	
331845	166708	263067	67320.9	3547.32	218020	216477	83258.7	21215.2	136038	
2772.66	77786	3866.04	28227.7	871.146	247152	1.02858e+06	113777	6060.72	144488	
1.05507e+06	487052	566939	9495.09	15829.2	40726.4	275396	3884.58	3746.11	119636	
135475	189746	201321	128529	3549.53	162450	587371	32402.1	3791.69	172326	
465021	176521	52613.9	64764.1	871.259	20619.7	571714	4801.51	134914	181275	
855768	271088	125248	37369.5	2450.33	66668	926107	4159.07	57815.7	80846.1	
1.6698e+06	115586	26750	82633.8	1523.06	4281.89	974582	1166.41	2160.14	113271	
765299	152302	9975.07	60546.3	1483.17	14178.6	1.43283e+06	15386.8	247887	300319	
275575	446836	3861.98	60284.2	2005.08	21531.5	146856	4196.77	63463.6	192865	
260523	153075	144239	73515.1	3553.26	5578.44	14770.6	2748.26	5851.35	260812	
2.64695e+06	231172	61987.9	438170	2474.74	9316.39	217440	4153.58	175033	137347	
306894	600880	15147.6	81101.1	1248.38	17766.7	22775.1	25107.8	18756.9	160587	
4660.4	238135	3873.29	178224	3367.64	860.589	697498	18337.7	104257	161757	
852460	51556	21169	283419	13964.6	89118.1	776639	4302.67	12330.5	89140.9	
21114.2	91400.8	3857.87	224349	52298.5	336886	349994	4003.03	15712.4	207777	
797806	223558	78140.5	96996.8	5023.73	3814.13	592078	4184.16	52227.4	189820	
878871	354005	82883.8	68135.1	2148.85	6875.5	906716	4402.12	85158.6	186288	
251562	164767	2194.37	56436.5	3560.19	187396	228134	4168.08	3849.08	163765	
67978.4	978639	62030.4	153145	886.33	2442.85	72240.4	4086.91	1203.89	180749	
1.87482e+06	109710	2545.51	147187	3560.31	6578.93	413374	12339.8	3164.96	143270	
581938	111054	2000.88	139308	2167.98	2896.24	443701	4191.64	3689.76	104798	
152065	166722	19419.5	222644	12959.6	160678	338309	2273	4000.52	167191	
1.14006e+06	253235	118136	48679.7	869.624	825.948	3606.99	17316.8	108156	219835	
802956	1.65875e+06	12648.9	101859	4494.39	3811.31	1.17447e+06	3668.92	33969.2	107311	
100157	210126	56643.7	123847	52813.5	185133	75655	4122.29	64476.6	105412	
592877	234247	192715	603573	16449.4	168050	198618	2929.45	41371.9	130728	
547304	720753	3925.41	36872.7	75233	38759.6	371827	2797.6	4300.93	130622	
453240	108457	218603	34766.3	3566.72	7114.59	954389	2677.52	57401	129021	
99560.9	198717	19976.1	315309	3994.54	101882	1.17712e+06	4141.35	3799.52	122519	
540625	52438.9	14021.3	241521	15795.7	9140.6	121731	4044.25	37984.2	329849	
926929	157658	56688.4	167771	4459.78	3685.93	1.03503e+06	53179.2	3953.04	183597	
119048	57820.2	5660.68	32876	3570.84	31849.3	1.9865e+06	4455.85	143015	168333	
928669	343569	19640.7	234874	9961.28	78342.4	1.05464e+06	4403.98	127097	250902	
549808	594085	3894.41	177095	14559.2	65417.9	451921	4200.42	243907	163005	
108136	313448	990.336	124224	3576.98	15257.6	1.11056e+06	34915.8	432620	112458	
444898	139720	45867.8	314670	6102.06	8010.29	474474	4158.07	4057.94	163761	
176587	257656	191687	444475	5621.22	106719	368036	8138.88	10219.5	149054	
1.02418e+06	131172	208835	58933.1	13382.3	268184	435146	44292.6	108004	105906	
1.55303e+06	467954	20215.4	202234	995.316	50383.9	415309	24658.2	1621.82	98282.8	
33705.1	272888	3892.73	35270.8	2685.92	12784	98387.1	1559.51	337464	72757.6	
558933	317713	1017.2	260402	7029.79	75169.7	476991	4141.63	30654.2	123325	
383626	296781	41531.9	253523	917.123	3859.08	167212	4164.98	273370	109495	
405779	190625	4741.34	262113	850.672	26750	285582	10555.7	35648.5	246739	
1.18176e+06	328769	4077.69	207132	12814.3	5009.32	2.37766e+06	4096.43	236665	151249	
7927.09	406504	63563.5	56036.5	3587.88	145180	290579	4215.94	53234.9	150113	
1.35476e+06	473991	54044.4	87100.8	5068.29	15377	418678	24598.2	43423.5	103868	
76537.5	579481	961.648	34696.2	1183.1	3267.5	1.52181e+06	915.254	44378.5	79127.4	
1.28891e+06	100917	827.785	163376	991.909	947.123	1.01374e+06	19888.2	4011.63	100043	
437758	203050	17970.3	693281	15522.9	921.004	422685	5486.06	5365	225748	
170690	87734.3	3147.14	523103	3592.5	114881	348568	3272.25	3746.87	98284.5	
56595	69431.8	31969.7	118398	11849.6	1050.47	2.2645e+06	5763.17	149280	150640	
358159	433077	9181.8	83133.7	15782.8	113431	413758	2098.79	233077	117881	
605509	550259	3893.35	282787	3163.36	30197.4	1.90802e+06	13490.1	198743	128043	
186031	655109	12468.3	188640	3596.89	1631.7	128718	4203.79	271882	440493	
127046	292654	81241.2	232862	6702.6	104023	7433.39	28694.4	49864.3	146062	
1.22933e+06	73239	1194.85	633044	9044.79	28222.4	134451	19398.6	2860.48	278185	
1.16078e+06	337871	1058.53	754501	20564	25362.4	4037.48	3962.52	1586.82	193046	
837238	35559.7	934.966	75611.5	6944.91	5362.61	1204.88	4185.73	41514	60967.8	
2.1578e+06	94772.4	4028.9	369550	40285.4	29309	8299.99	17070.2	26738.5	102565	
463596	437974	23266	43671.6	3607.19	6967.99	446264	4204.63	50298.8	104476	
413951	480716	1569.58	280725	4386.48	14778.8	5887.57	33315.8	30733.4	104481	
735023	172472	2596.89	182751	33201.4	180135	2.92632e+06	4638.37	29581.7	128023	
285888	226632	17337.7	33818	1907.93	3982.92	142631	3738	16312.5	73129.1	
2.06344e+06	169578	3933.58	115684	3632.59	13811	1.06706e+06	4195.03	49423.9	195560	
372518	201758	237611	212555	22790.5	1570.04	364288	4206.93	6462.19	313199	
1.45918e+06	236065	35559.2	427617	861.74	38402.7	1.17858e+06	951.705	24214.3	58225.3	
625050	54776.2	12279.5	187583	12581	3975.13	551294	10482	8776.83	33320.2	
1.06876e+06	413547	4155.57	318045	9324.24	1527.96	609629	3679.91	3344.31	102405	
694059	140239	3369.59	77547	2425.33	10637.7	563587	20755	34636.7	88603.6	
130513	981230	8362.25	94387.4	2581.19	908.739	94979.4	953.459	1679.15	89534.8	
3.21478e+06	213478	1268.86	381694	3629.2	7275.23	396252	1294.89	1978.48	72307.5	
608626	255339	53558.3	157741	2265.51	12281.7	68081	865.241	3032.35	86064.1	
415179	204687	4526.21	237257	2198.5	25395.1	79191.3	32449.5	239079	180828	
1.06231e+06	253068	201066	732211	59126.7	4063.96	717156	17622.6	4240.92	375746	
1.20211e+06	146012	2351.84	239010	1083.51	874.272	1.21875e+06	17937.6	8005.32	149348	
573085	697870	56575.2	232608	11902.3	44777.9	361833	4218.35	4064.59	77076.6	
1.05502e+06	341826	24130.8	786735	936.903	2856.29	1.2266e+06	91815.3	3144.7	210947	
4.63757e+06	233847	2735.75	259465	849.178	39633.6	304514	16401.1	30402.9	74692.9	
65447.6	336356	115279	214303	3641.08	2199.2	546812	1118.84	18470.7	347053	
663819	38523.2	3430.44	131731	1501.65	113527	227298	4238.57	8829.45	80414.7	
851829	85457.6	189696	568642	3197.44	11847.8	745722	4240.58	7852.43	94264.2	
2.61721e+06	375572	3309.18	531699	1771.54	38117.9	311247	17328.6	44847.7	111458	
586360	200056	4026.54	519947	3646.84	22730.5	104549	34847.2	7670.6	166796	
482311	351845	4676.1	242107	1222.14	4050.21	81919.3	1090.03	3373.21	74596.6	
83733.5	693526	4095.4	484061	3647.55	37710.3	55562.3	4242.73	44598.7	70990.6	
614460	237923	564121	168174	2916.24	4053.03	67292	4103.52	75142.2	260765	
1.00371e+06	192836	16562.3	665539	3053.84	16454.2	455103	70404	32932.8	104050	
463358	49404.7	68569.2	262437	874.812	34288.5	334646	4830.26	44559.7	142293	
268255	121542	2459.98	660394	3648.6	4506.96	490465	4269.44	888.87	108134	
621966	233723	6004.8	124288	2869.06	105561	481989	2769.26	257723	130165	
278960	35126.6	4073.95	243595	3640.85	5082.58	350444	1129.86	5611.79	176431	
816205	346652	2934.57	323365	1681.99	912.278	194412	4187.18	12800.2	535905	
436460	112021	102502	566406	2393.88	76822.7	97513.6	4196.61	17327.4	29002.7	
1.29069e+06	94471.9	69853.6	274729	3457.75	9329.47	63985.1	4263.91	902.91	69897.3	
142633	84495	4204.52	261399	1568.68	2763.77	1.46203e+06	1001.19	45977.8	243363	
1.05234e+06	420329	1047.31	73949.4	2691.77	11584.7	39350.5	51431.5	114382	17014.9	
1.2716e+06	122871	7677.06	32215.7	20115.4	9700.13	279500	2068.63	43252.2	243206	
243955	266792	142950	50110.1	3649.18	3140.42	446534	3820.8	6304.65	59990.6	
7197.21	194064	3607.5	806437	10186.2	4100.49	147766	2066.54	37486.7	51065.4	
981728	173129	269838	358124	70738	13058.2	463441	4088.77	108426	15054	
1.39392e+06	85482.3	2479.79	193204	3650.62	4406.51	1.08314e+06	11542.1	85185.6	110721	
1.63443e+06	111055	26993.4	51953.7	2212.38	6503.9	390961	1269.85	1402.26	60813.1	
120784	314137	99693.5	261141	3651.78	133132	770399	4227.22	3674.33	76342.3	
175328	16888.5	13442.4	317259	1389.41	5359.13	1.10832e+06	1334.04	2023.86	127616	
298805	372091	6263.94	244185	1571.48	11696.5	351412	4282.2	18402.8	58752.1	
969513	86285.5	3028.54	113275	3653.5	3220.61	273444	4281.69	4257.47	48127.6	
185144	123493	80512.3	256415	3654.63	1898.79	128502	4216.76	15095.6	73447.6	
1.39522e+06	454487	4292.85	392561	3653.93	41224.5	275342	4222.13	4118.32	60523.4	
382324	234129	9185.93	35174.8	11587.9	101969	499797	29910.8	8545.29	74234.7	
109771	252292	18012.9	404602	3653.05	17995.7	510827	4286.44	26531.8	86106.3	
640954	213794	25700.7	74812.2	924.218	1013.08	632648	4260.9	7429.2	72826.3	
831521	171507	199747	381843	54738.1	38470.9	110088	4232.92	120658	48474.4	
118558	169066	7890.05	149033	3653.01	30475.9	822937	2413.92	242051	46498.1	
102299	255538	978.465	242253	2096.36	3157.9	86456	4238.83	13785.2	355483	
27644.1	114207	6087.33	571657	3652.94	18759.1	20951.8	23395.4	3615.66	37408.2	
488517	421491	5561.81	520010	26283.6	7743.04	1.03195e+06	1875.54	11782.9	59352	
303921	223191	3707.28	372557	3653.87	782.43	403269	4238.04	4426.91	25750.8	
18308.1	784042	7804.53	443235	2728.74	24193	262047	4185.17	72490.1	139224	
52732	267437	828.925	765759	3725.61	34520.1	558791	4248.79	4564.69	108162	
582528	653263	272809	473546	4883.5	1460.13	11726.3	4113.17	4535.45	9363.88	
190129	76983.1	810.692	936995	1805.76	14009.5	200963	41604.8	44920.2	86961.5	
641584	297755	4255.47	1.85027e+06	852.763	2389.54	51976.6	89812.9	16720.6	151707	
1.44937e+06	83501.5	49491.6	152872	970.824	14556.4	201459	4197.91	19307	31610.7	
4263.3	133250	282061	76267.8	10937.1	2721.5	255422	4296.15	20487	52732	
971060	172413	45739.9	92951.7	3658.85	7137.07	4831.44	8651.18	4496.48	56793.8	
56558.6	108082	45574.8	187274	5524.97	8085.62	397083	4236.11	372828	189410	
290831	126472	5949.43	409816	1952.78	21414.4	917176	4238.6	4427.49	239840	
119838	309332	28209.1	187904	10644.5	53199.2	467751	1627.78	4858.83	165359	
689867	121046	7069.89	291871	55171.3	3981.61	166658	4245.19	5142.23	58259.6	
992958	187808	844.661	1.08490e+06	46368.9	28190.9	561489	4229.44	31899.6	114360	
1.02804e+06	310323	4248.15	265497	1006.36	2922.94	4574.72	4246.97	956.218	83841.3	
59859	219748	4449.42	265662	3264.6	1090.82	524655	4115.06	4402.67	307037	
1.08155e+06	267522	14946.3	67220.9	1016.24	867.408	382038	3576.48	2011.43	22945.5	
827151	204074	4498.65	302619	3669.87	20180.6	371979	4106.43	71518.4	132713	
287834	274977	1510.36	173452	845.65	13517.6	108560	932.239	47317.5	107000	
2.03613e+06	234547	19831.4	463921	3818.85	28690	193129	883.168	11954	96588.9	
1.56424e+06	86268.3	97702	76112.9	86095.6	17279.1	2257.68	13745.6	3735.77	330403	
31989.9	586959	4449.81	176690	4771.12	71202.6	31738.4	4101.98	1916.83	440719	
523510	244560	1600.17	316711	966.762	45371.2	117791	4219.27	12937.6	120712	
917017	60286.7	23376.4	255807	5883.24	15320.4	396300	8902.6	6568.72	145295	
492130	401084	4535.58	530927	1016.47	19912.8	695392	4241.08	4797.6	22593.8	
729598	216384	71084.2	155360	10141.7	6828.7	91196.6	1537.39	25863.9	152719	
344296	78366.6	12495.1	116931	2089.88	10901.6	207126	4175.28	1105.64	86748.4	
8654.83	112573	6125.33	182799	3212.89	2344.9	1.22849e+06	4192.3	1260.73	64484.7	
2.92388e+06	344052	15054.3	232643	3688.24	87125.6	343105	4146.9	29216.4	67165.9	
514773	366654	17139.8	29981.1	6913.98	29245.1	867429	4116.91	2184.11	234009	
34793.1	556719	2862.85	691204	4014.71	28192.7	11701.8	7487.61	15056.2	271740	
110139	106678	1480.98	30729	3691.11	6678.99	44442.8	892.606	62104.9	314365	
949423	386762	1940.69	122593	3694.24	38782	514173	4104.27	900.186	38478.5	
487562	175726	7490.65	177414	3693.49	65591.8	369513	4220.33	6701.74	290334	
235045	131676	4092	494090	22565.4	118581	449096	4199.62	9882.25	40071.4	
634010	123146	50094.3	107451	1126.53	10604.6	1.12064e+06	8932.76	45345.4	210587	
97978.3	1.11381e+06	104493	78407.9	3696.22	11036.9	1.00105e+06	4167.21	1370.97	44618	
3.73935e+06	315509	5653.47	81897.9	3695.62	10247.5	51189.3	2700.26	2254.52	94324.8	
2.55128e+06	342152	4308.39	485491	3697.19	7451.56	4564.12	4225.29	122832	189114	
1.18491e+06	107501	147708	344970	3695.82	74957	254015	860.586	4490.76	165068	
200270	256780	187613	226083	14556	9166.1	273244	4221.38	1987.86	45770.2	
271500	127649	1094.29	85629.2	3698.4	13059.2	144637	49712	71766.9	570912	
3.5884e+06	186650	4694.06	331721	3695.53	73132.7	611437	18676.3	1047.85	49414.2	
1.03403e+06	216994	5090.65	181156	3697.5	2539.15	1.01661e+06	4171.47	20041.2	186895	
64188.4	210670	14766.2	24728.6	3695.26	14659.2	330968	81600.2	991.677	275477	
371553	375862	21443.3	997825	3694.51	51125.1	356162	4195.36	48269.5	59813.8	
176614	117462	4339.12	294409	3456.32	6427.12	184089	55107.8	25248.3	72816.7	
336778	93918.4	4276.99	664912	1199.41	168921	336311	4070.05	2691.42	128110	
427239	147478	9480	308255	3693.3	43012.2	85350.7	4193.29	2450.5	48619.6	
510553	338834	6965	119009	864.57	4482.98	307213	2069.58	35837.4	246322	
63114.2	149350	1654.41	680516	3690.88	992.48	362551	73042.8	13892.4	103470	
1.34032e+06	182589	3393.41	179438	4034.45	2892.46	109833	939.419	4033.3	70208.2	
149793	53110	4247.42	253082	19570.4	4646.53	83881.9	1702.02	5359.7	257461	
837362	449364	4456.78	86381.1	3688.53	2748.37	107006	4241.1	19187.7	67328.1	
252410	290351	4391.14	27765.3	8548.05	136121	1.27276e+06	1187.34	21805.6	75019	
143004	152450	4873.06	353525	35115.8	9392.9	3910.64	4214.1	12385.2	110721	
1.53001e+06	131024	7950.11	106655	23379.7	13362.5	689604	4139.23	5944.94	73628.7	
115877	94479.1	1524.5	125949	3692.08	45026.9	7081.66	4120.94	2706.26	51374.8	
150878	155230	29925.6	118713	3691.04	811.477	53113.2	2523.32	11861.3	31032.3	
824279	194437	948.197	84145.7	7280.47	2429.84	69608	4201.56	3007.4	99614.6	
1.31582e+06	128229	13691.2	161571	3692.26	11786.1	46301.1	3487.94	5113.3	162661	
128952	132504	1944.63	753484	3693.88	4721.63	70094.1	35630.3	44240.3	119119	
3475.42	78318.2	2396.63	128552	2745.02	795.25	50759.6	86165.7	62155	14936.4	
39227.4	520792	4430.89	35776.7	3694.59	4578.1	235673	4178.66	53095.9	78063	
314211	184412	222205	219958	26754.7	12023.5	1.6028e+06	6336.52	4751.89	13598.4	
101735	168429	4349.07	107852	1386.27	15320	3385.04	40606.6	4381.88	53288.5	
322353	145904	14833	115991	3692.86	1568.12	535946	4240.13	993.548	34045.5	
1.16938e+06	491299	9441.81	283924	2396.76	8707.8	656513	18661.2	1014.94	390234	
516068	268707	54694.7	30995.8	851.804	1814.79	3908.06	63032.3	5004.91	180373	
70489.7	132473	1296.39	222327	3692.02	4480.05	32208	5384.68	2923	35950.3	
631654	176266	42236.9	85894.7	3694.62	44354.4	5470.28	4203.34	1067.76	158020	
692145	76040.8	1852.31	444298	849.622	1858.48	9966.12	4205.23	1429.8	136724	
122991	66757.8	4308.34	607862	1703.66	85497.5	174259	2329.26	12467.2	48806.9	
167330	367176	4526.31	532380	2689.51	34151.8	577237	1153.33	4604.87	99754.3	
47320.8	459194	14011.6	468411	3692.2	41047.1	61772.9	4276.86	3716.59	50418.4	
304687	242291	4684.86	17015.7	3691.49	479705	262902	1585.54	19932.3	158359	
323290	124831	6108.37	80542.2	2064.11	16080.9	196275	4200.54	3042.8	95295.1	
95804.6	112799	65235.9	85591.3	10593.7	138106	19527.2	4200.87	65583.5	102213	
266910	90706.1	2505.9	362042	3689.91	7354.26	70290.6	1460.29	28676.6	107113	
1273.76	265901	2357.62	207399	11564.6	146157	163320	4254.16	982.256	127518	
128025	78719.1	4534.18	142785	3688.54	19130.5	352761	4293.39	10937.9	144456	
402881	61898	4309.79	290402	3688.39	51980.9	816188	4184.1	1069.63	289198	
487723	445754	955.916	52788.6	3689.79	16491.4	661155	4198.4	19417.4	227064	
146873	78334.6	3167.72	135484	1587.15	4877.04	289934	4250.17	103956	51778.3	
91877.4	86520.7	278872	153886	918.145	48679.8	5517.73	4548.17	1382.46	13214.2	
963087	180804	4947.59	174879	3686.34	33866.4	310129	21990.4	14590.5	167842	
549135	298330	4596.18	66641.3	3069	5060.47	459737	4222.22	12699.9	237657	
320360	98387.5	1544.89	320791	3686.66	31317.6	302202	9400.57	115961	203636	
1.12398e+06	76658.2	2975.98	19725.7	3683.85	8310.06	191435	4224.71	3295.91	160295	
9613.12	493918	4668.68	32391.5	3684.41	119865	312444	4233.76	1258.68	34785.1	
864203	54450.3	7662.63	163913	3682.83	49051.8	139538	8067.89	17921.5	96032.6	
108372	104424	95688.9	158350	3683.41	23726.1	48246.7	4266.85	5223.4	93505.4	
2.05254e+06	148111	11856	227208	3680.05	40408.7	134603	7131.35	58118.3	102223	
306474	79402.2	1012.27	345348	3677.08	1069.67	186218	8528.72	5561.13	49669.8	
674776	54191.4	4534.68	120428	3677.41	15576.5	62069.9	4211.11	4527.7	53085.1	
524903	71796.2	70350.6	101873	3674.49	19783	1.49141e+06	51848.3	6607.78	113170	
1636.49	205839	4918.98	218958	3673.14	4149.33	516432	30034.6	59142.9	81277.7	
82771.9	216914	34837.7	184942	3669.85	86975.5	1.29479e+06	4253.36	900.645	213574	
661.323	122016	974.779	116129	3667.88	7700.72	461234	4196.1	2832.57	48342.1	
860026	272858	3376.75	161029	3665.9	5398.18	326529	4221.24	5391.47	120654	
139573	195495	12781.5	18799.7	2540.85	6159.65	20975.9	119009	1690.91	181802	
378753	20704.2	8799.54	35323.5	3663.15	5439.63	1.25306e+06	1308.52	2095.78	368498	
215663	242137	206478	553880	1071.57	447513	9767.9	1294.6	30756.8	94056.6	
238960	223140	1241.02	561006	1959.26	5290.28	137391	4247.1	285259	64400.4	
477113	51260	1048.72	2477.64	3659.42	75262.6	788425	4180.9	1631.06	142790	
1.56885e+06	50323.1	5530.39	183262	3655.99	10144.5	8819.76	1304.41	1147.98	192571	
545272	89449.5	17218.8	116199	3656.51	1126.24	421522	4203.67	21864.2	198762	
225310	92973.8	4450.95	117007	1805.01	5236.23	278311	4254.96	3645.77	253038	
1.9776e+06	205122	4408.21	168719	3651.76	14056.6	30011.5	4184.46	5355.59	15151.6	
7234.22	87423.5	11943.6	342468	1015.89	81135.1	9239.94	839.602	4733.31	302451	
1.2155e+06	304280	4856.86	65472.8	17118.6	8991.92	1.49861e+06	4230.84	1821.33	62497.2	
93758.9	98826	5294.61	216405	3646.91	5555.13	842743	4257.24	52940.6	353420	
221264	87094.3	31378.2	279171	3647.98	186465	777570	4266.24	10637.2	43271.4	
466457	274657	2701.78	2224.51	2396.74	47033.9	847804	4252.86	794.898	34289	
524736	288112	2303.39	56043.9	2240.87	9581.42	164379	4276.96	15406.2	198158	
384616	89253.3	3841.6	287381	3644.6	5458.17	66507.3	4273.55	1998.58	267665	
336020	394526	2487.36	121358	3641.4	932.965	768578	1727.6	2406.88	71275.2	
1.14781e+06	179614	4426.89	148842	3641.92	24284.2	186728	9528.62	14028.9	33553.8	
636966	7903.84	4845.46	26891	3641.36	45851.1	96920.9	4263.04	3885.65	126940	
26118.9	93074.7	980.734	249300	3638.64	15445.7	30889.3	3681.53	1443.31	64335.5	
587138	218389	185450	17008.8	3639.05	5893.61	31902.3	4212.74	5350.73	78632.4	
309500	243768	4714.54	360660	3637.2	2667.31	454938	1147.29	1096.99	33529.5	
2.7751e+06	70334.2	45265.2	316158	4463.1	15118.5	873.012	1289.24	3125.86	21902.8	
8576.93	77464	4835.69	375774	869.496	24400.5	122009	4230.11	3800.44	65455.6	
185513	222935	4706.97	126344	6342.87	3694.74	5837.64	4240.35	1828.07	80949.9	
204765	378871	16681.5	165543	3631.78	11521.4	146347	3463.41	1033.51	135739	
220805	158612	100564	295045	3630.14	5127.83	6947.64	2599.83	2059.18	71513.2	
235862	39182.6	153165	222784	3627.79	1023.9	317568	4241.08	5551.58	162766	
829325	157839	4698.22	62963.9	3627.47	114943	167057	4157.62	5172.21	68210.9	
1.23646e+06	526115	3972.96	36132.1	3626.84	1388.79	15381.1	14723.6	9921.62	421896	
455762	79843.8	108422	290048	3623.18	41334.9	1.35051e+06	2386.89	14847.3	60804.2	
517864	379932	1535.54	17198.1	3622.96	91455.9	22843.2	4670.3	755.84	86390.8	
42534.6	360753	55404	110956	3621.82	288485	170093	1238.04	5646.91	8971.81	
306255	60059.6	174543	36243.3	3620.19	5319.51	78916.2	4213.28	5325.92	80968.6	
49680.1	181660	16496.6	172196	1782.45	5387.87	26069.6	886.633	1163.79	21326	
84486.8	21205.6	36353.9	142201	5444.2	70201.4	882244	6777.73	2531.16	190554	
10636.2	124326	4119.23	63648.2	2843.52	4726.54	7376.56	8675.25	26341.5	184744	
1.39899e+06	266698	2157.36	185281	3612.07	81314.9	100961	28815	20568	181097	
30618.2	675213	1040.37	43900.3	3612.46	3213.89	288163	4218.22	26045.9	31329.3	
105222	97622.7	4865.98	689712	6379.19	1329.64	108035	4193.15	1197.05	17000.5	
375637	317340	955.165	159733	3612.02	1084.04	11235	4212.05	5629.56	99702.1	
208583	458573	5425.64	57293.6	3607.15	5872.16	1.39771e+06	16429.9	5387.62	44695.3	
85757.6	97414.6	1649.2	115235	3607.12	198718	19933.1	4200.31	1052.84	119859	
437485	65250.9	1979.17	107882	1258.11	5844.38	68960.1	4198.01	952.925	42810	
33312.9	181607	1431.95	248972	3603.73	6151.87	41984.5	5813.38	5423.89	108857	
68779.2	99583.6	4715.18	20688	1853.81	9909.65	172489	4136.44	1542.33	155617	
136169	120466	37053.5	215366	3600.77	1511.42	9852.9	4124.47	45670.2	637661	
11560.4	333542	3388.28	328347	3597.67	48962.4	2.36933e+06	194082	1555	25785.5	
35015.9	139488	1426.82	177749	3599.06	1668.61	450413	4081.96	5164.79	369748	
675424	127669	53714.7	75676.9	3603.31	9209.64	145356	18961.7	46571.5	27006.2	
230351	73635.7	3735.61	115529	2718.84	13760.8	164093	38716.8	11935.1	34965.5	
152080	147407	7028.6	141362	3598.59	44605.4	1084.72	4146.84	5694.88	80331.2	
328823	141079	5378.89	565665	3590.42	8625.26	608138	916.207	28727.1	5629.3	
113626	166807	3908.57	181958	11736.9	6061.2	119353	824.061	1255.7	53598.1	
1.16468e+06	59423.1	8060.6	89521.6	3592.54	6257.74	4886.8	4079.16	4813.49	13956.6	
762769	121165	7628.92	334217	3596.79	117990	49887.5	4234.83	23345.9	9504.53	
100745	167494	6579.11	257696	3588.92	5992.77	12307.4	4235.09	5776.33	25788.4	
2.07250e+06	681512	4732.05	65797.3	1618.8	41593.7	51266.9	4220.7	1462.68	69241.8	
161302	458163	4771.79	105482	1738.63	6080.5	473556	4133.96	11392.7	275044	
1.03754e+06	266883	13227.6	42168.5	3584.95	3748.06	725397	5630.25	6956.1	39837	
5372.48	278013	5018.64	52127.9	3580.79	67647.2	1.29121e+06	946.894	5460.94	3624.77	
399746	172666	4821.83	424186	1886.33	66832	543684	3870.24	14550.1	14875.8	
467648	486183	93309.1	27230.3	3579.25	11773.7	41546.6	25328.4	4746.73	3663.1	
749250	121952	4968.14	162274	1867.83	12121.1	486045	7151.47	5249.6	38681.2	
3368.12	201852	4763.45	146486	989.906	12074.1	128578	4191.91	5619.98	23175.8	
1.87188e+06	91548.5	4555.96	88996.8	3579.1	6562.84	125966	23267.1	1237.49	78854.1	
106259	193977	10918.2	33655.7	3579	1464.24	144335	4187.01	1704.94	26286.3	
760372	241823	24058.7	112075	3575.02	9020.29	331495	11146.6	3893.68	49142.7	
224893	35652.2	4876.53	50885.7	3578.9	1009.35	53207.3	15511.5	5781.44	22836.9	
1.01613e+06	27303.6	84925.4	36792.1	3584.67	128810	67198.7	20978.1	20869.4	7818.63	
387466	77327.1	2282.28	216483	3579.02	175083	684853	4177.14	30848.4	16784	
916262	119896	4930.99	71508.1	3573.56	5366.41	239404	16832.6	1748.76	16891.9	
782763	34832.6	1265.39	87074.1	3574.9	185897	2098.22	11637.4	3095.57	8639.15	
262654	220810	4913.29	65153.7	2451.9	11522.6	27400.7	4033.92	144525	459504	
288227	248420	999.349	161923	1041.54	12659.3	201362	4176.72	905.387	138633	
57221.8	93647.8	5148.72	185954	3574.22	7177.47	30774.9	4136.5	2044.95	3407.98	
1.71132e+06	492696	2077.14	59057.6	3442.87	81347.9	271932	4211.18	2080.95	25094.8	
1.31925e+06	597890	3160.1	145243	3568.54	13941.9	35613.7	149493	936.801	659834	
140564	267151	5079.45	13786.1	3569.96	5314.31	14617	4150.64	1712.47	38228.9	
823349	264578	4978.64	72875.3	2458.07	14612.1	634178	4185.84	5707.71	72802.1	
77379.8	28948.8	2101.41	123406	3568.7	2180.96	229349	19453.9	1061.41	19052.8	
610037	295352	4658.85	97102.5	3567.04	6550.15	744859	4243.52	5442.46	18565.7	
211134	173655	5033.88	100281	3565.46	6771.11	71214.7	4231.15	5930.1	233072	
1.21738e+06	128773	2193.94	225061	3566.64	6403.7	145394	1355.94	5893.72	49810.9	
135701	56636.8	5050.77	15377.5	3561.84	31407.1	1.14591e+06	4176.44	5464.83	2372.71	
80136.7	624704	1797.83	55158.6	3568.82	5004.94	83337.4	1974.72	5810.59	13529.9	
2866.42	329408	5218.95	107262	3558.56	1748.61	875796	21991.5	1202.89	65701.4	
5179.89	116713	81493.5	64279.3	3557.87	121628	301485	2518.98	94762.8	7450.81	
1.41577e+06	52918	38104.5	536136	3552.38	122144	368101	3126.63	8634.52	44571.7	
69937.8	291119	7996.7	18582.8	3560.03	9804.99	188229	4255.91	5228.13	27006.6	
694660	120855	2374.98	319236	3554.34	16517.3	192232	4269.16	2659.02	7691.16	
16503.8	125176	4584.63	111488	3558.97	7525.28	722507	4160.46	5666.22	273478	
14440	384453	1767.38	60282.2	3559.45	5829.04	507462	4230.65	5798.61	16414.8	
20680.4	82192.4	3608.57	21882.3	1758.07	41255.6	69521.2	4336.54	5161.11	14130.4	
59442.7	136311	1080.75	108645	3543.99	10065.5	485594	4250.75	1036.33	15912	
11590.2	117062	1109.89	262888	3556.53	2626.45	315775	9351.58	5578.36	1857.01	
135721	89318.1	5095.04	132145	3552.04	6470.45	359623	4182.38	3932.3	88637.5	
107282	180226	1017.25	126371	3545.15	27341.8	183824	5853.83	2645.73	7665.21	
503114	72396.5	1562.53	1.00326e+06	3547.81	96406.1	71644.7	4172.79	5429.39	3033.36	
517681	131667	4661.43	76413.1	3545.14	5851.49	61532.7	5159.88	5774.76	7568.31	
1.50142e+06	278258	5206.85	99238.3	3543.07	19212.8	448373	34031.5	5711.37	26819.8	
10982.6	33056	3384.2	335297	3539.79	14613.2	13754.9	4232.86	984.812	8415.08	
59879.7	26348.7	1094.88	13765.8	3547.38	9928.3	23752.8	12128.8	12394.5	18906.4	
777436	80910.9	4977.2	309565	3538.86	6855.01	772.988	2587.63	1736.97	32846	
1.88805e+06	401103	19011.5	137325	3537.16	5633.57	87793.9	4199.27	5272.91	6760.68	
40081.6	75604.9	5281.95	14274.2	3550.76	12832.2	57023.9	4246.96	5841.19	9504.41	
125262	369743	4782.1	165726	3545.04	76908.4	214720	6836.88	5658.17	52793.5	
37765.1	123013	1117.57	220425	3543.23	10326.3	41695.6	4185.66	2973.36	39051.4	
8904.45	145745	1729.4	121055	2594.78	37720.5	381406	4792.56	1231.7	189370	
30352.9	338713	121622	25623.5	3525.51	6761.59	950318	3253.54	5797.95	2744.19	
315001	122869	1412.09	25027	3530.34	7639.47	1.59033e+06	4172.38	3040.28	84630.5	
521691	54814.1	4835.32	64995.6	3532.07	8842.32	435822	4230.26	27828.7	3736.85	
222506	729993	4961.2	3098.51	3529.1	4136.11	14404.6	1907.91	58716.8	6692.45	
108005	123942	1113.36	62684.9	3521	29438	84670.6	4226.02	2183.25	68984.1	
272628	70518.7	5301.61	89275.6	3528.84	7048.77	867.507	4185.6	5276.34	175471	
52798	654258	5013.65	190322	1723.82	25432.3	79158.4	1210.78	5590.12	12793.8	
192820	249669	5010.51	25046.8	3519.24	982.078	6417.07	4190.2	1708.15	14396.2	
154499	43274.9	2974.78	235802	3520.81	153538	710837	4238.99	918.932	1062.32	
6675.79	75069.9	4984.98	10966.3	3518.25	59636	10265.2	4220.31	5206.12	58351.2	
367661	91080.5	13541.4	73548.8	3526.62	13666.9	52760.5	1898.06	1034.98	7519.12	
209889	119646	3290.36	179092	3525.6	7343.6	689078	4181.09	1075.6	16032.1	
287757	58803.8	1027.17	1.14995e+06	996.91	7173.58	135789	3650.88	17219.2	769.504	
771578	125738	4709.21	162494	855.194	23167.2	137317	4207.24	32012.4	4667.46	
9212.14	277344	1046.8	404142	3515.22	6455.28	369943	9365.98	6095.5	9287	
37117.4	216806	4024.19	290943	3516.43	44265	17877.3	4227.31	5839.87	18280.7	
425642	70527	4911.83	92731.6	3503.34	11858.9	309149	4145.59	4691.66	58925.3	
1.1599e+06	182789	4516.06	19039.5	1228.24	10434.6	224634	5687.5	983.049	126990	
268726	121724	2415.53	22679.7	2913.06	4804.63	46932.8	5143.81	1742.88	6122.48	
383665	62450.1	3754.11	89133.2	3506.77	68720.7	309437	4151.63	887.179	858.845	
307382	198697	2917.95	62528.1	3511.96	240108	101499	7670.85	1289.92	686.659	
242290	249585	4911.65	6857.57	3513.22	5621.42	162818	3902.14	2606.29	64588.5	
117128	172702	4940.42	187705	3504.73	6826.89	167049	4157.38	5066.27	10570.8	
851630	45493.1	1621.59	117428	3504.99	27247.7	13687.9	1548.29	4437.46	8836.82	
23920	65938.8	50349.2	816022	3516.71	184728	15746.8	20854.1	7616.83	1920.06	
13247.3	213282	8235.73	102131	3501.48	99876.5	133488	4203.66	3038.93	2907.15	
257683	72517.9	5228.21	42806.8	3516.25	25700.8	696126	4097.11	2039.31	8304.62	
246454	68828.9	5406.16	91397.8	1450.86	1081.62	5762.25	4183.45	1845.94	7941.07	
161828	123313	1427.67	100433	3498.01	7628.45	561844	20553.5	1343.82	6194.05	
567176	100394	15473.2	244326	953.796	5868.97	278499	4050.1	42246.1	1146.65	
37139.5	80737.9	938.011	183018	1492.14	55792.3	3892.9	40659.9	5752.52	11215.9	
574534	104376	5065.15	293047	3508.61	6412.45	294420	4226.38	5745.55	838.88	
228767	112250	4640.28	100082	3512.74	7772.7	45659.1	2632.87	9621	10269.5	
681768	359363	5146.13	286515	3503.05	5746.84	268864	4176.42	1868.41	6763.36	
136231	88546.7	4958.27	463775	3500.81	70741.9	82375.7	4079.89	7945.56	7739.26	
423692	150477	40360.7	127558	2924.68	10039.3	42068.9	2865.45	12176.4	7889.57	
317151	108968	4975.63	516606	3506.2	6372.7	43743.8	4756.5	22498.8	26725.7	
33339.5	221219	16957.1	112823	3513.82	774.512	76000.2	4195.51	5703.1	10308.9	
5325.51	185363	4917.84	100422	1222.18	9036.18	160652	869.854	3708.66	7717.24	
141839	63436	34123.3	174440	3509.38	20819.3	92709.2	4147.2	2483.83	17917.5	
31478.7	97812.8	985.659	215148	3500.56	43296.1	8130.64	7558.03	5507.6	7556.44	
28435.6	138087	1831.07	168908	3504.13	7806.01	423510	1127.58	7996.2	15827	
1.27295e+06	157571	4913.07	23896.8	3499.38	13674.3	889086	4163.6	5873.18	1237.21	
562442	156337	2180.52	28699.9	3505.5	1444.1	97111.4	4051.15	1114.13	10120	
262304	274300	1006.2	172198	3502.4	5577.24	824356	4157.82	5566.45	7726.95	
951095	114846	1543.17	33280.9	3494.75	29363.9	407954	881.439	5637.55	6045.31	
105299	82370.1	984.381	5991.53	3491.43	1593.26	152899	2720.69	5698.43	7962.55	
351431	209216	4903.61	17587.5	23146.6	6811.43	93021.7	4336.03	4358.75	7878.41	
159051	44584.7	12360.1	8272.35	3491.08	1053.83	132599	5415.92	3563.31	10577.7	
159083	210512	3535.17	22901.8	3498.41	1277.48	424271	2407.66	1074.48	1748.54	
325253	53020.5	4510.39	8723.66	3499.17	27443.3	104187	1460.69	5583.1	7727.89	
607926	443936	30595.5	436119	3485.44	73291	8460.17	4135.98	5720.19	13662.9	
2776.33	140730	4649.74	117641	3491.43	2680.85	64112.7	4209.15	3018.82	7086.05	
600149	96341.3	731.375	2787.28	3487.29	7522.49	2.24895e+06	33757.3	1101.1	1010.44	
123029	79849.9	2322.86	56930.1	3488.97	815.827	42292.8	4123.89	2359.27	7902.42	
522712	53961.9	1305.31	28847.7	3497.14	26498.1	18892.9	2472.31	2167.58	5512.37	
268592	31767.8	4804.65	109111	3491.24	7862.55	31048.6	4169.1	48963.8	7846.23	
22807.3	140264	4889.56	317028	3486.08	7974.68	260797	2821.45	1008.06	7586.46	
8763.34	138809	5192.68	6169.14	3486.64	2551.4	89008.5	4145.48	1060.75	7723.38	
75079.7	479753	4607.25	309036	3481.88	24615.8	721392	2167.62	5657.11	7834.03	
204564	61180.3	5175.81	74788.7	3483.6	31055.2	530804	4142.96	17400.5	1202.04	
459317	113213	1665.04	252430	3485.94	467704	179769	4117.4	1494.66	7247.86	
333334	83663.7	1649.25	52423.5	3480.46	7564.65	1568.64	3895.31	52170.4	7883.61	
4527.88	98733.5	1452.66	45979.1	3248.96	13397.3	491973	4145.08	5477.83	7752.91	
103285	431096	8236.11	133196	3501.21	7665.29	5362.41	845.511	5624.98	8355.77	
545112	311850	5893.68	154726	3488.87	6414.9	9257.02	4107.34	3342.19	9792.89	
372564	92036.4	5157.97	42259.3	3477.63	5820.58	322662	4121.67	4215.69	4443.98	
225564	175868	4573.56	57078	924.782	8199.92	588975	4148.11	973.171	4587.63	
752805	309160	1635.72	383287	3479.62	960.057	111291	4064.05	9898.43	7996.26	
380596	266748	20904	163030	3477.69	7384.02	146955	4166.76	1985	7582.99	
47647.5	69222.3	744.926	553557	3483.34	6219.03	645059	5792.92	5345.37	7944.58	
58931	345998	17335.5	37604.6	3469.63	7324.37	301514	2782	976.809	5588.55	
289520	396012	941.395	138119	3474.87	8142.31	18379.6	3610.62	5473.61	1502.84	
4432.97	82333.7	4532.52	159695	1700.58	7425.75	53100.5	2714.77	5454.63	6953.24	
6613.48	100235	5076.44	118636	3474.24	1364.04	227984	4085.9	1444.72	762.519	
1.55526e+06	171437	5095.35	13005.3	3476.88	11987.1	82692.6	1341.49	5198.3	4330.67	
158059	75210.7	4935.88	25125.3	22404.6	8131.61	1061.71	2101.46	16234.4	7631.31	
79103.7	176262	3560.02	26759.4	6454.95	6661.86	486132	1065.23	5187.15	849.817	
348386	121687	4964.04	38876.5	7842.49	900.123	7458.73	1582.71	5373.12	7622.85	
60860.4	142432	4729.41	23519.6	2547.65	8444.46	31011.5	6582.9	5458.28	9932.28	
1.15476e+06	49508.7	4835.16	95670.8	1476.78	7960.32	329337	11987.4	1143.76	7381.22	
93901.1	150112	5152.26	69999.9	3474.61	28975.3	5608.9	4092.9	5243.05	7822.17	
658021	102797	5141.89	74924.8	3468.61	6767.49	480950	3960.41	3003.99	6767.47	
255912	170064	4797.1	18773.5	3473.02	6463.76	82297.6	3522.18	2067.88	7692.09	
835997	73483.7	32389.5	29390.7	3482.69	8149.2	303715	4049.99	976.125	7630.84	
389372	81056.6	1569.01	93330.9	3467.35	8071.66	70863.2	4124.17	996.346	7825.66	
3085.66	125741	1881.19	121604	3468.55	7668.31	44095.1	3209.22	5194.76	7018.37	
502698	52292.9	1040.57	60844.6	1945.85	8120.61	354751	4134.22	756.787	7835.4	
87246.5	100149	4745.21	23206.8	3480.87	11120.3	22800.4	4069.68	1075.04	7648.05	
886483	123081	3927.33	4602.17	3475.79	7266.76	175577	1822.54	2436.58	12166.8	
498720	48520.3	3061.44	97286	3467.53	9590.21	25036.6	4075.77	1796.58	2397.43	
305747	75839.9	4509.55	149841	3468.86	7812.55	619856	4110.93	5360.64	7407.54	
192708	89355.4	4607.62	73005	13564.7	1182.92	709.935	2002.82	5582.4	7399.27	
536331	101301	1192.04	45894.7	5328.56	7499.93	7782.58	3001.91	5264.32	7617.5	
185850	76572.3	4941.28	25122.5	3470.82	23134.6	42442.8	4081.52	7443.05	7652.82	
452284	72011.3	5208.13	60006.6	3470.5	7986.32	433847	19069.7	5335.23	1666.31	
732224	215108	2065.26	52702.2	3467.76	3005.01	10703.8	816.804	5108.58	7966.33	
565951	129551	4609.26	124439	3468.54	1250.45	85513.4	74016.8	890.647	8452.81	
492753	322005	5022.76	43348.1	3463.51	11485.8	6433.49	83506.9	5379.6	7728.27	
611220	174185	4508.51	25343.3	3458.66	7411.93	249908	4016.64	5229.24	8079.22	
455537	67002	2094.04	77779.7	3461.38	1158.49	271287	4123.36	5279.25	7592.15	
333934	162455	4863.4	126240	3458.08	9986.98	6555.28	2628.02	5151.25	7589.93	
16815.9	129563	4604.06	71989.2	3460.95	8609.73	199252	4069.53	5071.96	7419.1	
214304	118987	963.925	9758.8	3460.65	7543.3	571620	3140.07	897.264	7831.85	
224698	257604	1707.9	74560.6	3466.16	7862.53	101871	4099.98	5064.41	6228.99	
355096	454663	2706.75	132852	3463.05	7335.32	121169	1854.66	1035.51	735.121	
26165	22822.6	1253.12	126180	3458.19	7741.11	207660	2742.88	5205.9	7291.97	
64743.9	25328.6	4402.76	246883	3456.27	7174.14	245409	1846.16	5396.1	8780.67	
1.22448e+06	49113.8	3334.91	364940	3815.58	7601.05	292456	4095.08	1383	5864.11	
2.35504e+06	135810	2825.2	4954.15	3452.03	7802.56	225103	1790.53	5176.32	7926.86	
1.06043e+06	308847	4985.5	76041.2	3452.64	8966.53	290337	2639	2774.77	8099.92	
90057.2	47676.1	3528.72	68632.7	3457.38	52950.8	96372.4	2032.28	5210.1	5439.94	
5354.67	244718	2431.2	80884	3455.69	7885.93	508942	9579.78	5295.27	7266.15	
655522	60765.9	78515.9	144638	16046.7	3239.39	1894.8	4116.91	8211.69	7845.33	
91532.9	258693	4640.5	110101	3459.01	6522.36	7134.5	4000.97	5438.79	7535.53	
498939	439617	4718.26	40489.2	3451.62	7425.15	121993	4099.1	1105.76	7917.85	
1.38138e+06	417491	1407.24	19255.4	3441.12	5758.46	186295	4101.83	2242.24	4988.28	
2280.61	111992	4764.2	94906.7	1131.35	3128.23	2.02607e+06	837.801	819.33	831.768	
273820	309725	850.905	16489.5	3446.31	1107.43	104125	2999.19	4003	13904.7	
2727.7	130201	5054.49	31190.1	3446.92	7271.81	204935	3291.5	5375.93	5711.89	
1.54621e+06	65416.1	4834.48	15574.5	3454.41	2749.6	23386.8	4053.93	4929.1	8290.99	
161824	203094	4685.09	45503.9	3447.04	7011.86	2209.01	25100.7	8485.4	4877.26	
441538	278897	4992.48	64740.6	1677.25	7154.16	5492.92	4041.64	2916.4	875.341	
1.97503e+06	324857	2059.35	149670	891.611	7637	1.05734e+06	3845.46	5267.87	7846.33	
63775.9	83253.7	2991.84	41706.7	3442.89	7114.99	392311	4095.61	6465.62	10882.6	
224421	50692.2	1149.82	39080.4	3447.03	5525.89	103776	4027.82	7527.08	7473.27	
335720	305285	4483.2	15998.5	3438.95	7076.23	381132	11401.6	5132.3	7288.34	
301915	233434	2546.17	32682.8	3448.43	9022.13	245768	3945.83	4940.78	7559.29	
243557	118335	9276.51	56791.3	3445.34	7194.06	107611	1080.83	8212.44	7502.52	
1.18681e+06	126070	4457.01	143982	3436.2	1897.08	750977	1030.14	785.335	7642.31	
544837	48524.4	4576.93	12032.9	3439.7	1097.55	27913.8	898.85	7777.17	7233.76	
1.15705e+06	23664.4	4280.4	48655.4	3435.87	2002.24	205393	17310.3	7318.43	94915.7	
51872.2	31323.9	4742.4	4215.38	3438.45	1206.6	186836	2591.35	5170.98	3788.21	
21762	171077	4600.28	128596	3429.96	7576.55	88412	14381.9	4639.13	7651.89	
475118	112497	2907.5	37108.9	2069.74	4949.21	85980.4	4061.06	5098.97	7394.89	
3123.26	170261	4904.42	164571	2198.75	7388.98	323292	10562.7	5114.18	106948	
448784	55198.1	4818.8	76031.8	3426.64	6668.25	107725	3989.33	2600.19	8063.65	
621638	254797	4932.47	35650.9	3441.41	12959.7	108247	13559.8	1063.18	7135.58	
235980	179258	8518.93	69360.4	26047.9	7434.48	290529	8574.82	5177.82	867.831	
113880	170970	4605.09	12176	3429.8	7113.72	452320	1607.5	1048.68	7191.6	
11312.3	104728	1520.69	4751.43	3432.34	7001.91	1.20778e+06	3994.73	6403.58	5204.63	
28000.4	97340.2	4353.92	47990.4	3436.62	9020.67	1984.64	12694.5	5151.44	7248.7	
6230.55	67259.2	8872.52	17336.1	3434.84	7213.58	7799.12	2827.59	940.789	7537.47	
238073	79984	4768.77	319836	3422.21	7663.85	10893.3	54498.7	775.205	7353.18	
29179.9	101492	2339.67	85407.7	12533.5	4445.76	233724	3985.84	1232.96	7385.09	
182271	23330.4	4480.41	31933.4	3427.83	7295.68	8711.67	2601.92	16233.7	3306.73	
294388	122168	4238.83	22990.2	3419.94	2742.27	178922	1528.69	4609.54	7464.62	
39177.9	126885	4450.36	17478.8	3433.91	1785.71	17591.7	3981.47	1624.33	7554.55	
21787.9	27329.8	4383.92	23714	3516.06	6788.83	289098	4218.64	5166.39	7133.73	
3495.53	41372.1	4595.17	47426.2	3429.34	633.937	340801	4094.41	1075.95	7150.55	
34514.8	194499	4713.27	36576.9	3419.13	3390.94	20379.6	4714.1	7332.9	7056.53	
121884	100728	1000.1	176254	3424.81	7178.4	2685.56	46907.6	4565.58	8108.43	
41112.9	101725	1196.36	30886.6	1147.17	3107.67	449046	1624.04	2228.12	7392.5	
323471	60787.6	2791.82	39721.7	3415.52	6436.84	1.00793e+06	4035.49	5236.88	7452.51	
700704	53014.1	2286.72	31536.1	3416.25	4257.82	6139.45	4076.4	4935.82	7141.23	
351225	33396.1	4360.38	4045.45	3418.24	7121.79	2895.69	829.643	5130.67	7874.3	
13680.5	81893.7	2600.65	251173	3411.66	802.358	63278.2	3235.86	1562.47	7256.87	
1.06702e+06	163854	4836.5	164936	3419.96	765.453	39295.5	2452.01	5067.56	7046.82	
239114	73837.9	4381.62	469048	3412.03	7193.58	39530.9	3386.32	5321.41	7224.74	
17365.9	96222	4656.7	252608	3417.15	5556.83	92043.2	1134.57	1448.89	5857.42	
979457	50516.4	4591.96	57702.4	3407.49	12011.5	508187	4097.66	6135.07	7433.85	
63238.4	218786	1203.12	10714.8	3407.66	5155.78	216677	31651	5198.79	6545.92	
10286.8	83262.7	4671.63	29976	2686.53	19601	73302.9	4076.91	5110.21	801.004	
33708.3	142490	4788.18	44042.1	3413.63	56322.7	460629	60059.6	5312.57	7396.39	
17259.1	181798	4756.91	203415	1188.82	1188.95	28022.9	844.541	5219.51	7204.42	
202296	95526.1	2986.12	34167.3	3407.91	23301.7	123369	3989.51	928.917	7327.91	
188277	75566.9	4502.64	191560	3406.16	1110.66	87202.7	4073.04	4957.67	7335.79	
20575	106459	4807.07	179603	3406.57	1237.7	7823.81	4054.3	5287.09	3617.82	
106963	270153	1226.93	14384.2	3410.01	797.735	51755.5	2374.09	5112.38	6946.73	
103586	61059.5	4501.81	46279.6	3402.73	1395.86	195946	18233.6	4887.8	7100.15	
445229	39566.7	4885.69	25249.2	3416.63	10819.8	559809	2759.95	5073.19	6991.42	
876747	138429	4177.92	43351.9	3395.93	6924.75	202962	2758.7	4075.87	7528.5	
5610.61	77966	1109.69	35891.6	3406.53	44600.7	11677.9	4361.38	5222.65	7413.58	
1.69635e+06	124148	1812.04	9273.93	3398.17	6941.43	190238	4063.01	13796.3	7893.14	
66762.3	38921.7	765.015	48763.2	6823.57	11353.7	9544.23	1526	1184.63	7179.88	
119501	114436	4256.94	21093.8	3401.17	1429.88	383279	2114.88	1063.3	7163.37	
35980.6	61141.6	4382.71	43527.4	3394.84	6579.97	651142	3961.57	4660.01	7135.6	
22063.1	194639	4385.79	37254.5	3404.68	6716.71	12707.4	1083.27	5014.06	7238.78	
5673.5	186491	7344.94	93353.8	3412.5	6850.43	5369.1	4101.65	918.085	7229.58	
48885.9	229893	4347.82	302786	3389.5	7177.37	33317.5	4081.99	4997.59	7431.17	
7181.46	103517	1028.42	68798.7	3399.92	8246.25	511282	977.029	4789.95	7155.55	
230535	249019	2680.95	23541	3395.52	4937.15	404903	4076.39	4929.19	8471.43	
43931.8	173470	4652.33	170053	3395.3	4030.41	11091.6	12913.9	1641.81	863.477	
147742	68856.1	978.944	9475.14	3392.85	3274.68	87711.4	34644.9	19399.2	7016.76	
22755.4	25375.8	2196.87	50548	3393.18	17487	6755.75	4098.77	4966.81	6976.61	
84216.7	90244	1074.83	78660.6	3399.59	6122.96	8440.9	1152.34	4358.68	6297.25	
2.26147e+06	204315	1722.65	52286.5	3385.84	12528	81907.1	4093.21	5058.98	721.738	
276973	82846.4	14963.3	8542.47	3385.76	2671.32	57526.4	42805.4	4690.99	6894.38	
224479	97647.8	4696.82	11250.4	3380.33	6555.87	52800.6	1510.54	4816.63	7509.4	
1.31703e+06	144183	4645.45	17226.3	3387.9	37824.1	252861	3919.18	980.854	7262.67	
43865.5	26712.4	836.271	66161.7	3399.22	3411.51	20894.5	868.5	4756.21	6989.73	
27888.4	91387.5	4551.16	71964.2	3371.49	6581.94	24935.5	1291.88	1848.52	7297.08	
495920	53974	4543.78	191706	3374.33	1180.11	14471.6	3908.65	4854.05	7086.95	
261412	86947.5	4213.43	16486.1	3374.16	8700.17	172686	1165.98	4581.77	6991.53	
151248	191365	817.406	13234.3	3372.73	721.351	71173.3	4087.91	894.343	7129.9	
408471	195902	4172.3	15128.2	3375.18	6483.72	10069.2	131199	806.191	35190.1	
9535.32	186577	999.406	107220	3366.47	2661.13	125801	4099.99	4802.19	6880.41	
70692.6	65337.6	4047.97	150290	3369.83	1225.45	388471	1820.13	4715.16	7189.39	
78560.4	175263	1836.55	9917.7	3374.42	1265.11	54386.1	852.541	64277.5	3398.33	
104184	45459.2	4377.83	148423	2460.48	2898.76	781528	4098.95	4850.07	7565.25	
25967.4	103475	993.955	129921	3382.23	1358.73	47209.4	1902.53	10673.5	7031.52	
214975	112338	4349.17	8500.34	3363.11	1447.66	13833.5	4062.25	4650.44	932.383	
85842.9	135196	2143.38	243674	3356.69	7104.96	5739.81	1612.77	4823.23	7199.28	
7412.55	73546.7	4406.08	29244.9	3369.59	4734.23	27559.2	1621.46	2876.65	7280.44	
426342	79977.1	3204.44	71571	3355.26	1601.67	288365	8728.98	4630.62	7005.96	
48990.5	46334.8	4405.64	619471	3362.38	2702.6	8666.69	4135.5	4729.91	6931.59	
106549	50111.3	4460.13	53560.6	3366.72	1972.76	78837.3	4041.21	1074.7	7302.89	
778009	60321.7	3090.55	4557.42	3353.58	2746.5	350049	5227.25	4488.64	6930.07	
360509	86231.7	1375.17	30752.3	3349.09	6720.73	16290.3	4100.85	1770.51	5856.18	
56197.4	54337.6	4410.61	31331	3345.45	4032.9	6891.26	4079.8	4363.41	7085.8	
33709.1	62371.3	1322.77	60916	3359.45	10687.6	170197	4010.3	4775.49	7183.22	
216623	97799.2	52865.8	112728	3349.9	6418.9	106323	4118.47	941.457	7013.65	
1.11647e+06	165053	1597.44	121283	2175.58	4288.36	96947.6	1753.97	4463.05	2219.99	
72698.5	138365	938.049	16416.1	3347.26	1419.82	292145	829.192	3718.13	9355.77	
118968	216390	4423.58	247717	3352.17	844.67	245124	6903.34	4414.18	7026.44	
12345.1	97341.7	891.575	29038	3353.41	4634.65	36374.1	12295.4	1662.47	8090.2	
88685.6	14515.9	6852.79	86189.5	3342.04	1895.6	49275.9	4118.6	1090.54	1765.34	
34338	114090	4403.07	22588.1	3344.69	18523.4	10118.3	4009.21	919.191	7224.81	
41556.8	214226	2058.22	34451.7	3342.1	6460.02	5191.33	1231.21	4520.07	6464.99	
9109.21	55547.7	4383.81	6126.1	3339.64	6377.04	14921.1	4058.76	4533.4	7104.1	
273454	50160.1	1097.83	16753.2	3335.87	1117.53	273027	3861.62	5014.65	6975.09	
18284.9	91222.7	4552.21	68341.8	3336.35	1024.77	1.05951e+06	17367.4	6244.66	7339.44	
13093.8	151320	957.573	52847.5	3328.36	22782.8	198203	4056.22	4551.18	5775.64	
9336.9	117395	4282.18	142106	3328.67	3072.29	137325	3885.34	4709.43	2713.06	
22517.1	49564.5	19255.4	18342.6	3328.06	961.234	75449.4	888.116	1097.82	6882.69	
289823	74746	4425.23	210792	3333.03	6693.67	13434.6	4062.01	1689.24	7055.56	
223424	95377.8	4585.91	58931.6	3326.77	1808.72	6561.69	13005.7	4695.83	21388.5	
108465	63317.5	4462.06	2514.9	3334.73	6857.5	13208.8	2424.45	807.257	6987.69	
190602	103928	1741.44	209430	3307.92	883.824	158030	4008.01	16136	7089.81	
37858.8	120199	4690.6	55422.8	3320.54	6625.51	18771.7	11053.3	2529.14	6894.01	
65318.3	86158.4	1053.4	20946.3	3331.09	1569.53	56054.6	937.585	2156.01	1921.82	
10470.6	40479.2	4612.05	90254.6	3321.28	1000.04	19528.2	1866.89	1342.42	6806.47	
16291.5	214127	4342.36	50213	926.429	101036	16863.8	14801.6	4633.26	6106.09	
18882.2	60005.4	4514.27	51167.7	3303.8	7521.24	101945	4072.03	4762.63	7029.1	
225304	57884.8	1459.57	127384	3313.65	6528.42	327618	4095.08	4481.19	6817.55	
426658	125787	4561.58	178054	2207.65	7163.14	73135.7	4057.37	4594.35	6989.97	
259285	76834.8	825.784	87591.6	3306.65	5842.05	4584.92	3947.24	5922.76	6881.78	
361717	161355	3706.4	93355.1	3305.47	6581.21	103644	885.551	4620.29	6541.2	
63593.6	156069	3717.15	12937.8	3299.07	6940.78	232202	831.498	1605.61	6671.29	
293451	220921	25668.7	13379.4	3298.99	4675.24	58598.4	4061.4	4523.87	15020.4	
88067.6	81371.3	44432	38545.2	39500.5	6496.05	121046	2803.39	1065.95	7008.37	
42641.6	71556.9	23853.1	16922.1	3301.24	6418.03	69000.2	4047.49	4655.9	658.079	
30441	47481.5	2370.11	21268.7	3308.91	2712.26	95643.5	882.866	4304.56	6506.04	
8608.06	58214.5	1257.73	113011	3307.33	7002.79	80729.4	4090.64	4067.17	6958.6	
22491.8	288917	4528.28	8342.77	3306.33	7145.73	29477.2	3980.74	4703.41	6806.17	
2749.74	46605.2	4464.55	6619.31	3294.71	16078.5	158438	4021	4796.08	6470.81	
198977	32481.1	1161.35	128671	3287.67	28401.3	5432.27	2206.5	11906.6	10390.2	
120614	183442	1882.67	118952	3293.97	6826.98	280616	3869.56	4445.3	6832.12	
61799.6	178276	4485.59	81817.7	3286.76	6620.78	73773.2	3288.92	44422	6810.52	
491244	90758.2	2394.75	36236.2	3290.95	6736.3	20723.5	4060.89	4731.83	6778.23	
148426	78749.8	988.375	30816.4	3298.5	940.604	107526	4056.77	4380.69	7078.8	
21600.8	159169	4707.65	58919.9	3282.34	7032.16	51910.9	1615.01	4293.31	6975.38	
236072	109863	897.768	119190	3290.27	5586.85	42262.5	4071.24	4810.61	5336.49	
301870	195827	1562.67	47830.6	3277	7062.79	87840.5	958.696	4599.73	6742.49	
437889	120946	4441.41	43197.7	3279.7	13103.4	155883	4049.14	1330.26	5643.98	
32127.1	75698.5	4430.67	54334.4	3283.48	6286.15	38336.5	4077.24	4545.48	7081.02	
60637.4	211005	4272.53	27603.7	3267.61	6877.72	9303.9	2952.77	4523.51	6913.48	
11429.5	104259	4530.79	148131	3274.77	905.207	23027.7	4006.01	4448.92	6906.51	
39903.2	70215.7	4397.09	16248.7	3271.21	4587.22	506286	886.064	4610.46	6821.27	
33294.7	147171	5370.77	30124.5	3262.01	5819.31	23403.7	2776.85	4653.49	6732.04	
139791	243388	4473.04	20084.3	3271.97	42776.4	150871	3950.65	4598.62	6750.7	
272888	58487.6	2330.88	48475.9	3275.34	6177.16	6126.39	3932.9	4583.61	6075.49	
16762.9	210408	2159.95	9601.61	3268.6	7012.4	293145	4010.64	2145.36	7012.15	
18190.7	52802.5	4357.84	64587	3261.35	6708.51	102970	971.973	1044.8	5604.23	
11052.3	36688	913.375	38518.9	3262.36	2615.84	251083	2168.82	4577.53	7191.16	
79555.2	46907.7	4494.32	67028	3257.33	6761.54	254961	3923.06	4577.97	6626.3	
201621	139746	4598.1	46720.9	3264.53	6314.96	427008	818.554	4741.19	6790.53	
102816	43886	4411.62	20957	3266.73	5591.3	25666.6	3954.04	4716.09	4271.95	
158411	91118.8	4054.19	38044.1	3256.14	6862.71	50026.8	3344.24	3556.56	6636.65	
245969	125362	4604.81	25537.2	3271.16	6527.5	22326.5	3967.3	3120.61	12450.1	
531401	107559	4378.14	51173.1	3256.98	6664.87	3550.33	3987.09	4635	5593.07	
219310	224248	14267.7	162059	3248.49	868.434	14698.4	1372.49	4717.75	6573.28	
12326.4	73221.6	4602.19	152471	3251.85	6496.15	222644	3917.09	4595.51	6951.26	
26185.9	100245	4173.19	104850	3243.31	6819.98	127879	1357.6	4322.21	6787.16	
36490.3	96904	4382.3	8274.94	3249.33	5733.29	6612.57	3996.25	6009.2	6574.55	
9234.87	61769.2	4316.96	90737.5	3240.82	6883.51	11959.5	3982.04	4477.65	6693.04	
281629	62421.6	4378.61	45707.3	3231.4	5640.87	15655.8	3824.77	1595.59	42486.2	
18319.4	62943	4512.78	65775.1	3236.66	6385.03	128311	3915.35	10042.6	6919.27	
287511	87085.2	4358.64	96912.8	1011.41	18728.2	16424	3945.74	4276.39	7000.3	
20836.9	160330	4230.72	38814.8	7283.65	5494.19	9870.72	1147.65	4570.51	6690.69	
22717.6	28748.1	4346.09	91923.1	3239.5	2402.95	5964.3	3938.58	4501.74	6520.07	
38712.2	96983.4	4436.76	20153.1	3233.49	5934.59	266549	2506.35	4651.6	6836.86	
608277	70663.7	4348.36	65979.1	3225.38	30562.4	109514	3898.16	5007.35	6770.85	
93061.1	105049	1269.42	160875	3228.79	6775.13	193936	1107.82	4499.22	6717	
16216.4	76298.4	4488.02	117497	3218.31	2461.89	86467.6	10033.3	4690.98	6616.56	
5240.1	34205.2	2193.8	46964.3	984.353	725.344	999652	2510.2	4578.67	6579.26	
60922.1	83448.9	4450.78	90184.5	3230.48	5751.38	115157	2548.44	4397.26	6571.95	
20244.9	54169.1	4257.81	20559.5	3220.37	6519.03	182190	2905.56	1798.27	6911.62	
7645.18	86572.8	7565.31	24298.2	3216.98	4696.68	32098.5	3977.94	4320	6807.41	
56638.4	58933.9	1537.81	92690.8	3220.19	750.848	13920.3	1372.21	4359.06	4679.36	
168503	447089	4337.16	17724.1	3219.35	6289.03	60029.3	3896.76	4491.48	6569.78	
369006	16414.3	4229.13	174466	17272.9	6471.32	50778.8	854.193	4534.63	6867.29	
11103.5	412833	4340.77	54976.3	3191.15	1371.61	70026.3	946.761	4255.7	6583.94	
22291.5	24202.9	4157.75	43635.6	3206.21	12681.1	192072	2504.54	1368.63	14743.8	
25951.3	167921	4346.16	62792	3206.03	5996.1	517595	918.704	4480.19	6648.85	
7235.14	91410.4	4103.3	65071.6	3198.09	6777.81	15540.2	3882.64	4416.49	6921.16	
169714	82527.5	4462	69266	3182.28	3482.43	33613.9	1086.39	4461.06	6688.63	
6814.75	319231	1103.23	37446.2	3198.64	6347.13	130177	3951.8	4278.6	6605.5	
106509	42714.8	4068.45	59239.9	3191.27	5826.1	84455.1	1765.54	4247.72	16450	
202359	56778	4083.09	305630	3193.07	6294.37	12274	861.033	4434.21	818.488	
280157	69033.4	4410.5	117322	3196.06	3253.41	58195.1	3786.83	4301.07	6638.63	
37831.3	68604.5	4121.65	36189.5	3184.39	6289.17	20510	824.632	4475.53	6588.4	
117665	127356	4106.74	35394.7	3191.7	4933.94	16391.5	3925.44	4318.43	1080.33	
32066.9	67835.3	4295.55	15176.7	3182.65	6379.08	8264.73	877.04	2636.49	6493.24	
20487.2	165228	4180.21	296969	1334.18	4705.6	89855.9	2392.63	4392.02	7674.01	
180858	86576.4	4232.56	105352	3177.26	1888.69	4752.32	3914.48	4364.87	6179.85	
35722.8	32752.3	4243.22	63573.2	3184.11	7252.23	175798	3928.67	4272.08	7231.14	
1.04644e+06	469315	4328.25	91942.6	3168.87	5304.94	7643.23	3887.72	4347.51	53920.1	
12995.5	72220.2	4331.82	143730	3161.94	46184.4	3990.35	14855.8	1179.7	6445.7	
661442	114857	4309.88	14086.2	3156.51	796.009	53389.7	12589.2	4324.66	7028.88	
75328.7	160665	4011.81	94148.7	3156.16	31629.8	4147.08	3642.11	4217.2	6523.3	
36148.6	22853.9	4280.2	121335	3166.82	4052.61	91198.9	3856.92	4237.95	7397.9	
3999.02	193512	4264	37042.7	3151.64	4973.05	35275	3883.62	4209.45	12455.2	
35357.9	50168.6	4272.05	76695.8	3158.19	962.857	5803.03	3877.64	4370.55	6538.83	
73914.7	71028.9	4186.46	23395.1	3167.26	11721.6	23633.9	3643	4234.49	6598.17	
192763	24514.5	4405.44	228075	3143.99	6165.2	898398	2652.58	2314.45	6427.24	
123997	47074.7	4207.92	25218.8	3159.93	60105.9	85730.1	3895.4	985.487	806.389	
55395.2	342538	4278.49	195931	3162.74	5300.22	11562.3	3839.41	4204.93	6561.81	
23798.6	64089.4	4121.05	273088	3140.6	927.51	7533.92	1228.61	4178.53	6439.69	
33514	58555.8	4222.03	259950	3134.23	6344.44	2179.83	852.043	4278.8	6518.25	
14406.5	47112.9	4120.09	5057.43	3122.15	7141.95	37329.4	11586.7	4178.11	6429.45	
24667.6	150513	4188.54	23236.6	3129.04	4644.63	91037.2	3875.77	4263.6	9207.4	
34289.2	61165.6	4113.2	2292.68	3120.5	5860.75	111777	1583.72	4367.48	6875.64	
35641.4	68402	4296.63	42138.4	3142.93	5907.78	48857.4	3029.44	4263.22	6507.39	
58780.8	38494.5	885.652	29296.7	3121.73	5821.62	27494.6	1250.81	4200.13	6345.79	
14543.3	130775	3982.49	36783.1	3110.71	8587.26	19713.8	864.337	4129.26	6517.79	
27075.2	33176.8	4145.89	52818.2	3057.39	6022.29	393966	47344.6	4007.15	6506.66	
3485.73	54038.7	2566.16	4765.68	3110.35	25483.1	76132.1	3840.69	4012.17	6239.96	
346616	109965	1562.93	306020	3111.93	5447.5	137833	3807.56	4114.36	6642.83	
286826	46279.5	4242.93	46234.6	3102.36	913.364	165029	19852.3	4253.3	6636.52	
543280	76289.2	1912.72	135415	3103.1	4958.88	27149.5	3885.22	16813.3	6603.33	
73135.5	58668.5	4110.12	25182.6	3105.42	4879.12	25044.3	3881.35	4162.45	6530.08	
9620.62	243246	3956.73	46971.6	3088.24	789.517	321307	16240.5	8249.81	7004.3	
224182	50239	6469.16	74824.9	3096.2	6241.59	8679.01	1526.78	4097.82	6628.71	
430794	30148.3	1250.8	80815	3095.88	1033.68	14746.4	1005.47	4104.83	6285.17	
23347.7	104041	831.327	145779	3092.69	3262.43	297478	3864.27	4034.09	5279.34	
295955	322882	3955.89	101174	2398.86	2912.74	63736.2	3792.76	4117.52	6459.5	
631336	326230	890.184	40148.1	3079.75	2556.91	78174	4660.43	1497.57	6467.38	
17948.6	23159.3	4051.41	8390.38	3080.5	12628.5	6155.59	3895.36	2256.73	5310.4	
28881.4	91025.2	3249.13	73198.2	3088.65	5216.32	38268	931.406	4137.79	6567.44	
5771.04	309893	1583.31	462888	3067.84	1821.29	5640.63	3862.06	4225.5	6369.34	
35458.5	81314.5	3933.65	54908.7	3076.56	5395.88	335970	1247.63	4228.5	5570.34	
476696	113382	4179.87	51022.1	3082.78	3222.67	22334.2	53024.1	4151.59	6702.26	
20531.2	114332	3993.13	94591	3054.09	6397.15	96032.8	3875.62	4207.73	6305.79	
281816	157893	4129.46	50128.5	3048.05	5500.19	19400.8	3874.32	4381.38	2626.24	
26297.6	176475	4225.92	25753.8	3054.09	900.488	7525	3911.18	4192.72	5118.85	
29838.9	25524.5	1552.35	52387.8	3096.96	4572.93	13945.4	3877.18	4193.24	6489.86	
334241	140815	2306.54	47427	3060.3	4990.85	56633.3	2805.71	4227.43	6388.15	
124715	43641.1	4004.52	18823.9	1134.26	3724.85	8360.59	8973.08	4262.52	6437.56	
148233	31941.7	4262.15	100979	3058.56	1089.59	17386.6	3911.79	4096.45	6789.67	
5068.73	79249	4045.19	49975.5	3037.12	630.141	164326	846.909	4228.07	6460.63	
128055	58913.9	1531.15	86954.5	3045.29	3391.81	16883	3862.06	4038.56	6793.32	
33371.6	174737	1498.92	24007.6	3050.15	3597.95	89254.8	26232.7	4084.62	6333.4	
150396	158104	4094.93	18635.1	3048.22	2356.36	7764.02	2152.75	4238.95	6370.06	
5394.4	32998.2	4070.51	230679	3034.39	3484.45	2436.36	3912.06	9520.15	6241.28	
7312.52	50123.8	4033.63	140718	2999.61	10317.6	3536.08	3877.41	4261.53	6320.85	
55611.9	84895.5	3929.23	28056.2	3035.44	1015.8	196563	3905.73	4034.18	6280.75	
7973.21	304859	4132.86	17162.8	3023.18	7615.76	67567	25191.8	4188.16	6548.52	
31605.6	65789.9	897.905	45013.3	3030.18	1919.01	20707.1	3904.34	980.619	6577.16	
33108.6	108909	2016.28	103783	3011.02	43264.9	19477	961.793	4168.44	6802.98	
95261.6	41446.3	4006.99	11751.4	3006.49	2811.49	22303.8	1018.89	4088.1	6418.71	
121801	123528	4086.86	60225.5	3022.36	2293.14	8763.17	3857.87	4080.45	6085.77	
29956.3	133164	4073.48	146027	3002.82	2949.51	10863.2	3893.75	4320.08	2736.86	
59761.9	65118.3	4077.53	153850	3012.13	5765.84	22028	49585.5	4203.86	6444.17	
300168	92936.4	3988.25	67500	2999.9	7214.71	14540.3	842.022	4170.06	6491.97	
6481.9	27993.5	4041.63	151169	2998.29	5412.15	26253.1	3862.09	4335.8	6741.17	
471881	108592	4075.72	40187	2975.98	4657.51	41022.1	12649	4241.99	6411.06	
26073	53753.7	4158.7	19475.5	2994.08	8999.24	62869.6	3819.85	4150.27	6279.41	
7967.11	216905	4019.49	145360	2966.34	18271.3	22553.9	3866.35	1893.5	6369.7	
118766	286114	4064.55	115334	2994.55	3211.79	23024.8	3762.3	4296.36	6583.05	
68364.1	47979.9	4137.9	59053	2953.96	1289.3	38355	3863.29	4145.44	6433.77	
15040.4	304052	4100	20053.3	2973.83	6321.08	25450.2	3847.99	4285.95	6546.56	
43828.2	74016	4068.54	57212.7	2964.29	27768.8	485633	6636.68	5807.95	6676.52	
364383	75589.5	4010.65	81775.1	2975.13	5779.34	637318	3817.3	1191.02	6370.68	
16794.5	58733	3710.5	31414.6	2968.45	2966.9	24649.8	2777.99	1776.25	6455.05	
250559	84381.6	4114.64	25456.8	2975.81	5303.28	215193	3819.26	4151.73	6224.93	
153671	48232.4	3946.86	154181	2952.04	1410.28	10310.6	22910.9	4250.79	6255.64	
8459.47	77633.9	3893.9	10242.1	2948.93	1315.94	6276.72	921.414	2460.85	1314.93	
106106	137311	3900.32	21605.3	16508.5	2340.67	44589.2	19446.9	2416.24	6347.08	
283521	10834.1	3983.69	67659.7	2943.7	10122.6	59143.8	3790.99	4275.56	6326.09	
23453.4	18927	3857.21	101447	2940.95	4698.33	91103.9	3807.73	4067.91	1324.93	
790593	258380	4018.2	15025.8	2970.86	15055.4	7350.31	913.255	4275.95	6574.56	
48885.4	27989.7	3903.9	79670.4	2930.59	1832.23	9047.78	1455.82	4216.72	6106.33	
16102.2	160942	3892.57	172553	2916.58	23127.5	22204.1	963.78	1183.51	5982.15	
180574	17758.6	842.139	12956.3	2907.7	5141.1	4503.89	9167.91	2474.84	6386.62	
7063.26	23226.8	3893.71	28823.7	2910.74	5462.91	165972	2381.86	4029.87	6587.41	
27235.8	42879.3	3816.68	31244.7	2907.48	5862.38	2195.16	3889.53	4135.3	6129.9	
389769	72216	3901.45	46187	2920.98	3730.55	51690.9	3816.87	4202.24	6302.58	
390221	41584.6	4140.01	33930.1	2928.31	1016.31	25135.3	3403.27	919.299	6158.31	
15527.6	155882	4004.97	26383.6	2917.63	5357.5	10510.9	926.935	949.579	6167.01	
142615	233832	3947.76	12201.6	2892.08	20216.4	3228.95	1188.27	4153.4	3200.31	
48919.9	19283.7	1170.58	100713	2924.95	2506.84	21112.1	3823.42	1070.91	6203.02	
227432	12842.4	3943.27	6320.88	5527.91	1994.58	210209	2917.55	4129.21	6297.94	
286278	107738	3970.76	44319.8	2889.17	4438.57	17791.4	19205.2	3984.46	6469.6	
239623	23924.6	3898.55	44195.9	2882.24	3833.39	8305.37	3851.22	2185.6	6316.28	
305165	119654	3881.08	26923.7	2884.14	8898.25	12690.6	1495.8	4095.09	6176.1	
21240.5	68592	3928.89	180423	2876.18	4181.53	6993.86	3833.44	4029.35	6153.73	
6664.88	107584	3828.85	32254.6	2888.99	1995.55	21601.8	14428.2	4066.32	6056.51	
153402	65124.9	3894.47	20212.7	2863.93	5652.68	204886	3868.89	4052.47	6089.59	
16901.3	53768.4	1431.56	61993.4	2862.32	1784.17	423230	3864.57	4140.03	6130.97	
24556.6	96646.4	3916.26	120557	2854.27	3085.6	14596	3799.56	1193.23	5247.91	
15910.7	30993	3921.37	56898.3	2854.29	3655.78	17298.5	3880.33	1663.81	6154.81	
65321.1	398899	3868.02	14699.7	2853.78	1538.52	6126.08	3613.85	4167.94	6308.31	
9251.72	116398	3847.96	39004	14179.4	1605.23	6535.27	1744.53	4032.88	6839.83	
159354	31045.6	840.794	30264.3	2870.61	7299.61	9464.65	3856.51	4026.83	6018.73	
26628.5	162809	3756.22	73838.3	2843.89	1432.92	7304.83	3865.26	4052.18	6181.03	
108197	55398.2	4006.64	132378	2819.48	831.755	21007.1	3817.62	4064.53	6223.61	
129999	30789.4	3811.93	27151.4	2854.58	6549.13	51039.7	3847.58	890.23	6047.06	
181375	225698	6311.66	19767.9	2826.08	1184.13	58097.6	3637	4111.72	6321.54	
205901	33387.2	3852.63	172623	2828.18	1538.18	24674	915.296	4031.13	6495.44	
75362.4	26898.6	3893.43	19651.2	2822	5307.72	9596.36	3825.17	3964.38	6142.67	
159917	158238	3898.69	4623.23	2841.74	1918.06	66973.6	3854.18	4023.08	6489.18	
86681.1	131011	3929.5	32507.9	2804.95	1792.66	21432.9	3812.4	3871.27	6146.23	
70883	77795.7	19902.3	13006.9	2843.78	5889.49	89436.1	1331.58	3887.66	6246.23	
91955.2	133648	2459.78	60069.5	2827.74	5342.16	39585.3	1307.32	3957.31	6527.98	
11743	86410.2	3953.59	26667.6	2813.93	4843.98	20386.1	3854.73	3941.5	6012	
31641.8	95790.5	3771.68	37855.1	2792.78	5091.22	10631.1	3804.33	2244.04	905.877	
117057	45001.8	3228.61	23368.6	2795.76	2750.28	2340.27	3845.07	4013.34	6267.55	
25781	252363	3815.92	43467.1	2810.05	691.687	7154.87	1920.37	4026.55	6314.63	
29429.6	54251.7	3786.82	141198	2777.59	2463.8	29631.5	3826.13	3898.1	6137.98	
12210.1	198129	1488.61	60816.5	2803.39	6836.26	51613.6	1114.1	3931.9	6113.7	
60163.7	36006.3	3822.58	20623.5	2771.04	3137.66	22524.7	3858.33	2110.85	5813.28	
122059	51568.2	1464.06	39608.2	2779.35	841.854	7640.52	3800.06	4029.85	5841.39	
46777.9	55915.1	3258.2	284550	1705.6	5817.92	104509	3783.01	3886.53	6122.91	
5024.68	70895.9	3828.08	24107.7	2787.09	1602.57	21850.6	3798.41	3895.4	2460.29	
257350	81562.6	3881.88	74066.1	2771.13	5594.27	5131.7	3836.13	3896.84	6083.84	
30882.3	39230.7	6586.27	134337	976.841	4412.56	29585.9	3777.29	3904.83	5895.77	
4500.52	85276.9	2249.22	31416.1	2773.73	1800.64	41752.4	3315.43	3968.67	6238.02	
21369.9	110934	3796.62	8687.89	2769.37	3005.13	7747.19	2636.12	3982.69	5982.96	
114139	19912.2	3836.46	25575	1398.14	5524.72	5632.25	1127.06	961.905	5983.17	
74279.4	76320.5	3843.91	122525	2759.98	5510.91	16225.1	3800.07	3904.65	5947.86	
6786	60086	3796.09	75255.5	859.979	5818.21	13763	3726.32	3812.36	5763.13	
23027.8	13252.2	3852.84	32807.4	2757.82	841.622	31311.8	3580.49	1629.17	6849.21	
93474.4	157380	20977.6	160299	2745.13	813.311	10966.3	3351.39	3844.05	6006.57	
52837.5	68692.1	3874.34	130504	2722.16	6535.63	8912.13	3601.05	3972.09	6127.39	
11169.1	45073.8	3823.76	15326.7	2738.76	2204.02	12265.3	3668.03	3902.85	6794.35	
20015.3	13710.7	3757.92	39505.7	2755.55	20662.2	19340.2	2284.51	3905.47	5843.29	
9636.18	60363.9	3799.19	238512	2740.5	1001.05	5358.58	3764.7	3990.08	5940.33	
33858.5	59383.3	3803.68	50523.5	2721.09	1580.08	204164	3786.59	3800.75	6234.38	
8437.63	118185	853.011	12758	2702.15	756.327	4437.74	3734.2	3208.58	6809.54	
10959.8	96947.7	927.93	83774.4	2715.37	5450.03	16827.9	13228	3853.63	17334.5	
28476.5	140733	3781.85	16170	2723.21	5354.52	11941.7	3682.92	3780.48	5923.19	
25066.5	127957	3801.38	58912.2	2698.04	1943.19	37824.5	830.386	3928.78	5024.5	
19708.2	51221.1	3846.27	27549.8	2705.44	4112.44	5196.66	3762.55	3908.13	5929.7	
10064.4	176156	3790.86	16002.8	2668.49	2446.09	10706.3	3648.69	3902.7	6019.56	
27105.1	31274.2	58238.4	41875.8	2730.86	742.354	65126.1	3084.76	3714.7	5800.59	
6795.13	85861.7	3772.12	172665	2665.3	5410.92	8567.12	1114.27	3646.32	6033.13	
4334.42	66099.6	3800.3	144235	2680.93	2780.65	335557	3775.9	3839.32	7289.11	
60090.2	61177.9	3815.51	276822	2712.72	5870.16	8940.43	3724.89	3838.94	5849.95	
26549.5	110077	1223.79	31771.7	2696.02	3160.14	5869.25	3755.8	3809.84	5827.48	
28470.8	96857.3	3824.5	50800	2644.86	744.297	19274	3726.27	2792.95	6058.66	
193841	79272.2	3811.46	7588.01	2671.02	5220.16	62621.3	1689.44	3838.08	6238.14	
85828.5	34947.2	3786.16	44886.1	2667.24	5885.29	11178.5	8888.14	3857.13	6628.76	
19980.7	38142.3	3780.6	42727.7	2657.68	5650.04	7884.28	6245.48	2970	5986.67	
5273.8	44754.7	3782.85	11869.2	2672.15	12883.4	8346.32	12644.3	3792.78	5877.21	
42988.2	44548.3	3774.19	4065.26	2655.62	4751.56	16868.2	3271.52	3802.86	6366.04	
64357.2	13259.3	3780.75	117786	2637.93	1258.18	53564.2	3643.34	3830.22	6015.06	
336796	31896.1	3900.15	77138.2	2642.19	5449.15	12906.9	3715.37	1274.41	6139.59	
94806.8	32798.8	3738.04	9944.17	2637.91	5053.79	17400.8	1278.23	3741.44	6177.93	
50314.2	83678.7	3856.67	24588.2	2632.14	5101.25	10695.3	863.707	3772.32	3618.56	
116696	49610.3	3744.02	20595.7	2621.83	5371.1	17323.8	3747.34	3829.25	14588	
9069.22	74865.3	3763.33	12186.5	2585.71	874.591	27325.5	3043.15	3793.22	6068.68	
54441.6	8800.45	3755.85	212396	2629.96	5337.01	15796	1564.23	3860.35	10033.7	
124882	120871	3787.19	43429.5	2609.11	5621.2	17032.4	3691.65	3015.34	5940.32	
5433.51	41895	5344.15	15881.1	2605.61	723.339	13361.8	3673.09	3741.57	5963.59	
18946.7	14222.6	3746.93	77903.2	2591.97	5557.14	21684.3	2722.7	3819.19	6107.47	
30622.6	128798	3834.08	64387.1	2595.99	5933.79	11193.7	3494.99	2125.68	5971.09	
29154.1	106206	3721.42	63154.4	2583.33	13674.9	13488.2	2524.25	851.15	6634.78	
26764.3	25739.4	1502.32	6957.77	2603.86	5746.01	15203.7	3739.01	981.263	5835.42	
50419.1	142139	3781.37	53519.8	2592.14	5213.67	163836	3729.64	3726.28	5922.56	
81763.9	92654.2	3759.67	66596.2	2561.89	5153.79	21448.8	3700.47	3846.13	5989.2	
38339	89268.2	3907.1	9905.35	2582.71	5334.33	6404.62	1802.7	3906.81	6206.03	
9344.34	194174	3790.36	11483.5	2577.54	2765.09	6907.97	1666.22	3794.8	5804.98	
19471.2	19728.4	3719.11	51691.6	2520.95	1500.9	86009	92820.5	3897.03	6084.91	
69433.9	49203.8	3815.83	27411.6	2536.84	688.954	7033.89	3796.93	3730.81	4046.95	
25661.4	292023	3750.17	9832.24	2555.2	13593.8	7753.53	2221.14	3740.75	5818.8	
24179.2	184567	3765.03	76039	2517.04	3822.89	5666.37	1008.21	1131.26	6120.83	
7554.58	37434.9	3842.96	12141.4	2543.29	2396.32	3540.81	29906.3	3707.07	5999.7	
8045	139308	2842.85	213127	3207.16	5160.63	17210.4	84189.9	3666.98	6091.92	
59498.8	119811	3756.86	50189.1	2525.32	6311.83	17751.4	993.428	3795.29	5713.67	
42188.9	36756.2	3711.8	43514	2515.71	5298.59	14174.5	3740.52	3726.35	5789.48	
17025	47575.9	851.259	45176.3	2508.72	5056.18	20171.8	2561.6	3772.45	5947.45	
19756.3	55326.4	3711.1	39868.6	1345.96	5625.06	6415.79	1336.89	3716.25	6123.64	
21999.3	199949	1479.97	19345.7	2535.08	6148.08	6293.91	6123.8	3729.38	6259.62	
21789.5	84634.3	14158	13981.9	2503.1	5153.03	2852.4	3715.79	1166.12	5852.55	
144330	37975.8	3734.81	92334.1	2517.59	6131.58	13468.6	1131.75	3738.94	5734.05	
106937	34554.3	1347.42	7223.24	2474.34	8260.82	2861.95	1080.49	3708.48	6485.02	
15497.8	118922	3723.66	40697	2153.56	5530.58	21611.4	25425.3	3717.67	5878.41	
8332.6	32087.6	3760.98	17088.3	2509.85	1396.4	20924.8	3755.56	2643.63	5578.76	
42433.2	80808	3756.14	6013.95	2485.13	5872.35	8652.16	1612.43	3631.86	5812.86	
59650.1	13799	3747.54	12555.5	2473.05	1306.5	8406.8	4118.44	3638.32	5963.82	
8255.73	382793	3740.63	55816.1	2465.91	1109.62	32984.4	3610.42	3684.23	5608.44	
13365	164232	3777.61	14575.3	1591.49	986.118	20159.1	3720.45	3737.23	5786.87	
10384	11356.3	3728.62	20294.9	2460.68	4737.62	14859.4	3750.28	3668.99	5612.56	
29666.2	22607.8	3787.43	23629.6	2461.39	2563.02	24431	888.336	3700.12	6286.54	
365555	71446.5	3772.11	25311.9	2428.62	776.525	21553	3739.41	3733.13	5570.03	
1927.59	27132.1	3776.76	26185	2479.85	60077.1	21928.9	3650.12	8819.91	5633.92	
21136	108286	3698.85	20793.5	2444.13	827.166	29130	3748.95	3694.49	5682.94	
103849	24287.1	3711.57	15462.9	2483.77	5165.59	15757.2	3697.62	3628.46	5775.46	
11719.4	41530.1	1726.47	83082.9	2463.36	2508.14	13278.2	3042.28	1392.36	1301.91	
12431.9	25559.1	3774.33	83084.6	2440.79	6178.38	18837.4	3751.02	3761.74	5975.32	
132392	66825.4	1085.86	40108.7	2430.68	6136.74	27303.1	2343.49	19711	5708.64	
105029	34230.7	2814.21	13036.2	2456.23	5716.01	95368.9	2567.31	3696.17	6129.69	
6539.44	549178	3790.82	6753.72	2377.6	1587.61	27936.2	3686.22	3802.77	5803.33	
277020	25487.6	3736.62	44913.6	2391.01	5725.59	7306.27	1366.84	3693.48	1090.43	
19552.4	29713.6	3784.65	20416	2430.43	5728.46	2505.05	3682.56	3785.57	1117.43	
39903.4	179645	3833.24	19704.6	2368.65	5541.66	13211.6	2543.05	3659.31	5821.79	
11880.6	15505	3754.98	8488.89	2396.95	834.479	147571	3717.74	867.424	5754.03	
32091.3	169414	2514.97	11820.3	2392.26	5775.84	20349.5	1353.37	5508.5	17964.5	
19240.9	15919.4	3735.71	59554.6	2368.57	6206.33	17163.4	3735.16	3623.93	5761.06	
26315.3	53697.8	3752.03	15877.3	2366.62	7302.13	121027	3733.41	3600.29	5939.83	
4519.32	97140.6	3806.3	217390	2366.86	1818.1	4351.2	3722.31	3660.81	5863.37	
5549.7	107356	3751.41	22026.6	2413.28	5558.09	3800.09	1087.18	3702.7	5851.82	
12410.1	13204.6	3725.54	16663.4	2385.16	2787.9	19192	1480.56	3668.2	6358.53	
130479	93642.2	2022.31	7185.58	2341.94	5891.84	15557.8	29693.1	3646.83	5565.55	
18845.1	46275.6	3696.25	11158.4	2379.66	1219.54	207254	1962.91	2168.82	5940.71	
44907	84109.4	885.294	29310.9	2388.69	2261.94	11702.5	3700.17	3718.25	5659.6	
21726.9	74997.6	3714.75	66138.1	2377.64	5814.45	4228.41	3058.88	3584.31	5656.77	
23361.6	29097	3835.76	36555.7	2399.36	13910.9	9835.19	3697.56	3682.89	2873.86	
72337.8	35365.9	3799.58	26876.7	9675.9	5744.46	114390	3699.18	3616	5943.09	
121841	46369.4	9244.7	77566.4	2367.05	2062.44	42698.3	3700.51	2144.84	4968.17	
16107.3	79126.5	3695.75	8805.9	3391.57	1337.23	13259.3	3725.15	3635.33	5840.93	
151228	301623	3753.53	44284	2324.07	980.051	60096.8	1378.05	3599.79	6398.25	
616190	9532.79	3716.75	330135	2279.92	6105.77	42391.5	871.966	3642.05	4232.57	
12431	44287.4	2175.14	68187.7	2361.03	5869.56	17670.7	1338.38	3606.86	1206.28	
49439.4	15024.8	1326.92	9455.31	2331.55	5584.64	81523.4	3737.93	3648.48	1544.95	
30705.5	79471.7	3800.63	24880.7	2309.45	6080.33	31356.2	888.18	3641.32	5782.26	
24624.7	18012.1	3742.14	99995.7	2323.82	1061	15184	2517.44	3595.07	5625.07	
52645.7	23123.4	3738.45	27100.1	13716.8	5874.27	204306	3658.53	3616.99	6325.97	
41915	44749	3711.8	136080	2299.69	5945.32	18665.4	3721.19	3598.83	973.924	
39384.5	12246.3	3732.49	29336.2	2276.23	6100.83	15770.5	2214.83	3657.33	6008.38	
6494	134900	3716.73	121350	2292.95	101430	2821.75	1625.38	3554.41	5581.85	
26384.6	92369.1	3704.41	11180.6	2258.57	4766.64	14157.9	8879.71	925.444	5535.78	
17419.3	49586.4	3707.05	8033.14	2292.78	6033.27	8260.48	12247.5	3565.5	5604.08	
106740	57519.4	3720.79	19365.5	2322.2	2130.41	23850.3	1464.35	3590.76	5698.89	
10983.8	21039.9	3731.58	35225.8	2310.08	5906.87	16531.4	3629.94	3594.77	6042.68	
34891.4	90003.6	1718.36	77202.3	2292.14	2167.41	1380.64	3637.94	3610.05	1418.12	
19600.5	57851.8	860.348	14071.1	2280.37	923.841	11022.1	2902.28	3596.35	1263.58	
79621.4	49200.8	16687.1	38274.4	2120.19	6037.41	18739.5	3705.29	3572.46	5729.34	
11616	16837.3	1487.82	56766.4	2300.98	6628.4	11844.8	3681.29	3530.68	5515.59	
11610.6	68409.5	3760.04	8371.24	2277.83	5963.01	10086.6	3669.52	1082.53	1552.36	
11455.9	20971.1	2861.59	5072.92	2252.96	2068.07	18872.3	2895.89	3519.16	1428.69	
8910.49	11847.4	1423.46	8779.04	2266.18	5891.61	50503.3	3695.52	3518.8	5453.21	
69042.5	162914	3670.91	27151.9	2266.15	9763.85	3212.37	3637.25	3559.22	5636.83	
