0	-809	475894
100	-1708.9	388549
200	-2386.6	216380
300	-3286.5	561586
400	-3923.8	258742
500	-4854	397363
600	-5865	411017
700	-6603.3	329874
800	-7432.5	448700
900	-8726.3	909893
1000	-9373.7	289930
1100	-10162.5	265283
1200	-11072.5	439838
1300	-11810.8	241303
1400	-12478.4	367681
1500	-13257.1	231282
1600	-13944.9	211299
1700	-14925.6	606486
1800	-15593.2	220104
1900	-16382	316650
2000	-16958.7	161036
2100	-17818.2	408163
2200	-18859.5	778400
2300	-19527.1	237908
2400	-20507.8	375724
2500	-21195.6	251645
2600	-22085.4	456827
2700	-23035.8	397761
2800	-23854.9	347883
2900	-25179	888142
3000	-25846.6	226603
3100	-26554.6	281359
3200	-27262.6	299659
3300	-27920.1	257049
3400	-28708.9	387129
3500	-29487.6	364305
3600	-30347.1	342375
3700	-31287.4	687689
3800	-32045.9	261552
3900	-32764	193115
4000	-33633.6	447818
4100	-34483	399416
4200	-35372.8	487426
4300	-36252.5	730247
4400	-36859.5	123994
4500	-38032.1	730603
4600	-38689.6	287525
4700	-39518.8	442586
4800	-40610.6	499435
4900	-41197.4	261855
5000	-41925.6	254041
5100	-42583.1	311664
5200	-43533.5	380730
5300	-44029.4	141309
5400	-45151.5	597429
5500	-46081.7	548376
5600	-46910.9	353516
5700	-47528	247149
5800	-48135	325974
5900	-48731.9	250124
6000	-49389.4	294553
6100	-50137.8	212107
6200	-50866	325941
6300	-51644.7	282635
6400	-52312.3	301605
6500	-52990	317899
6600	-53768.7	440557
6700	-54355.5	170850
6800	-55336.2	391550
6900	-55791.7	149276
7000	-56368.4	128201
7100	-57167.3	342871
7200	-57935.9	249010
7300	-58866.1	701788
7400	-59553.9	212578
7500	-60251.8	293463
7600	-60909.3	236114
7700	-61688	317794
7800	-62244.5	166814
7900	-63124.2	607587
8000	-63953.4	379426
8100	-64641.2	423017
8200	-65440.1	315739
8300	-66067.3	237333
8400	-66704.6	214012
8500	-67301.5	180473
8600	-67787.3	190447
8700	-68505.4	248064
8800	-68930.6	110100
8900	-69679	233450
9000	-70407.2	217680
9100	-71115.2	371472
9200	-71742.4	290290
9300	-72349.4	208094
9400	-73087.7	285487
9500	-73694.7	243927
9600	-74342.1	279042
9700	-74959.2	101974
9800	-75636.9	217585
9900	-76274.2	265739
10000	-76931.7	190007
10100	-77447.8	149302
10200	-78165.9	288936
10300	-78985	320384
10400	-79460.7	131626
10500	-80047.5	197716
10600	-80674.7	306734
10700	-81251.4	188324
10800	-81949.3	249050
10900	-82627	269391
11000	-83223.9	198351
11100	-84002.6	319443
11200	-84670.2	316637
11300	-85196.4	111410
11400	-85651.9	118980
11500	-86279.1	217853
11600	-86896.2	182355
11700	-87422.4	161698
11800	-87877.9	103713
11900	-88464.7	160618
12000	-89051.5	198816
12100	-89547.4	231362
12200	-90154.4	220990
12300	-90842.2	260045
12400	-91610.8	269326
12500	-92298.6	335642
12600	-93107.6	391280
12700	-93613.6	171060
12800	-94271.1	311616
12900	-94787.2	356692
13000	-95444.7	283784
13100	-96011.3	150750
13200	-96527.4	165359
13300	-97124.3	257778
13400	-97630.3	161696
13500	-98166.6	167311
13600	-98864.5	242752
13700	-99461.4	299176
13800	-100159	300020
13900	-100574	121747
14000	-100989	92466.5
14100	-101677	392405
14200	-102082	125026
14300	-102548	141097
14400	-103084	219410
14500	-103540	130739
14600	-104126	204365
14700	-104774	257549
14800	-105138	106583
14900	-105564	152340
15000	-106080	271655
15100	-106525	139575
15200	-107041	124626
15300	-107598	191072
15400	-108265	390394
15500	-108822	97838.6
15600	-109459	218156
15700	-109955	193239
15800	-110532	196924
15900	-111078	204702
16000	-111564	136715
16100	-112141	259295
16200	-112687	255313
16300	-113466	305210
16400	-114053	226789
16500	-114680	225619
16600	-115226	160572
16700	-115823	171819
16800	-116450	239804
16900	-117128	283468
17000	-117533	87139.4
17100	-118069	185538
17200	-118575	153448
17300	-119091	146938
17400	-119789	450923
17500	-120184	118094
17600	-120771	258091
17700	-121328	234235
17800	-121894	269365
17900	-122451	202779
18000	-122896	135702
18100	-123463	285948
18200	-124039	177958
18300	-124798	372410
18400	-125385	189277
18500	-125891	107658
18600	-126447	240897
18700	-126953	250277
18800	-127247	106952
18900	-127824	285042
19000	-128289	158433
19100	-128745	137054
19200	-129534	439474
19300	-129918	80537.7
19400	-130606	368631
19500	-131153	173696
19600	-131770	345965
19700	-132276	150012
19800	-132832	253442
19900	-133328	163586
20000	-133784	140513
20100	-134380	429396
20200	-134786	124785
20300	-135292	142079
20400	-135989	342661
20500	-136566	298548
20600	-137102	206401
20700	-137851	374401
20800	-138458	560011
20900	-138984	165068
21000	-139440	127331
21100	-140026	256275
21200	-140795	405256
21300	-141311	165063
21400	-141797	124719
21500	-142202	148217
21600	-142728	199895
21700	-143385	256064
21800	-143942	140526
21900	-144418	166456
22000	-145025	196706
22100	-145440	110410
22200	-145926	223906
22300	-146452	144465
22400	-146887	188158
22500	-147353	224943
22600	-147859	178412
22700	-148486	203221
22800	-148931	122725
22900	-149316	126398
23000	-149994	245763
23100	-150692	297373
23200	-151167	228760
23300	-151694	178718
23400	-152149	176896
23500	-152665	136746
23600	-153040	150909
23700	-153405	87237.9
23800	-153890	263565
23900	-154416	138686
24000	-154902	143408
24100	-155418	167436
24200	-155985	196128
24300	-156471	159258
24400	-156926	106629
24500	-157271	82737.9
24600	-157858	257456
24700	-158283	134550
24800	-158748	175826
24900	-159244	180077
25000	-159760	201823
25100	-160206	159518
25200	-160833	310732
25300	-161248	200734
25400	-161693	84243.8
25500	-162058	136773
25600	-162625	137466
25700	-163252	202212
25800	-163758	134872
25900	-164264	140331
26000	-164881	305305
26100	-165316	170565
26200	-165721	139428
26300	-166217	184369
26400	-166753	194251
26500	-167209	101595
26600	-167775	308949
26700	-168282	227784
26800	-168727	135454
26900	-169243	138838
27000	-169759	183476
27100	-170215	217663
27200	-170741	146071
27300	-171217	86423.5
27400	-171601	161413
27500	-172299	405007
27600	-172896	207245
27700	-173412	162377
27800	-173817	68120.3
27900	-174283	206085
28000	-174829	158825
28100	-175325	150930
28200	-175861	231194
28300	-176337	246063
28400	-176863	430683
28500	-177379	371512
28600	-177885	228817
28700	-178442	121969
28800	-178877	133966
28900	-179555	486887
29000	-180122	267123
29100	-180486	102175
29200	-181113	228994
29300	-181518	93997
29400	-181984	174119
29500	-182348	107977
29600	-182784	157215
29700	-183249	145227
29800	-183766	189768
29900	-184049	83285.4
30000	-184454	158176
30100	-185051	209036
30200	-185406	82959.1
30300	-185962	258569
30400	-186226	45183.3
30500	-186590	55777.9
30600	-186975	128995
30700	-187360	185236
30800	-187795	129438
30900	-188089	43029.9
31000	-188454	97951
31100	-189041	260705
31200	-189304	50073.3
31300	-189740	117957
31400	-190387	303158
31500	-190832	112545
31600	-191126	51122.5
31700	-191511	115286
31800	-191906	136937
31900	-192291	112698
32000	-192776	179100
32100	-193161	115386
32200	-193617	149485
32300	-193951	85172.9
32400	-194356	69965.5
32500	-194802	94074.8
32600	-195156	93072.8
32700	-195551	88933.1
32800	-196016	192580
32900	-196502	191924
33000	-196847	82024.2
33100	-197181	68541.7
33200	-197748	187582
33300	-198183	164115
33400	-198638	140729
33500	-199033	159459
33600	-199347	101686
33700	-199813	140452
33800	-200117	64548.7
33900	-200684	278588
34000	-201078	98696.1
34100	-201423	99707.8
34200	-202010	245541
34300	-202425	112606
34400	-202991	212363
34500	-203245	76775.4
34600	-203640	176315
34700	-204004	69882.8
34800	-204460	207765
34900	-204986	180262
35000	-205512	152289
35100	-205917	154785
35200	-206403	202561
35300	-206778	141927
35400	-207122	98603.2
35500	-207578	242826
35600	-207942	84848.5
35700	-208489	318338
35800	-208934	167685
35900	-209480	164477
36000	-209946	168261
36100	-210412	126524
36200	-210797	111464
36300	-211292	170295
36400	-211798	175246
36500	-212163	95810.8
36600	-212406	48890.8
36700	-212731	113762
36800	-213105	141566
36900	-213561	325363
37000	-213845	68741.6
37100	-214088	64239.3
37200	-214503	106760
37300	-214807	86690.4
37400	-215192	114577
37500	-215658	141799
37600	-216133	226962
37700	-216690	240758
37800	-217095	112627
37900	-217480	104770
38000	-217854	75546.5
38100	-218128	47664.9
38200	-218573	144200
38300	-218807	43743.7
38400	-219373	226950
38500	-219748	110735
38600	-220092	103556
38700	-220416	97914
38800	-220862	220357
38900	-221206	64742.7
39000	-221551	73662.1
39100	-221834	63715.8
39200	-222128	53931.5
39300	-222493	121148
39400	-223009	332015
39500	-223384	118835
39600	-223839	118319
39700	-224234	68944.1
39800	-224548	58733.9
39900	-224984	169657
40000	-225308	65912.8
40100	-225652	135927
40200	-226077	143434
40300	-226321	59020.3
40400	-226817	299395
40500	-227262	150166
40600	-227819	214497
40700	-228123	171300
40800	-228608	164712
40900	-228963	116501
41000	-229439	158956
41100	-229692	53109.9
41200	-230249	229645
41300	-230532	52636.7
41400	-231049	154660
41500	-231282	41823.3
41600	-231737	141441
41700	-232233	159888
41800	-232578	139641
41900	-232861	112088
42000	-233246	120297
42100	-233692	105835
42200	-233895	39308.8
42300	-234552	265326
42400	-235149	292893
42500	-235402	49417.4
42600	-235848	189973
42700	-236122	50650.3
42800	-236517	179038
42900	-236841	81488.9
43000	-237266	178584
43100	-237590	140565
43200	-237914	87502.3
43300	-238249	141475
43400	-238613	79906.9
43500	-239261	259306
43600	-239544	62572.2
43700	-239980	136405
43800	-240274	127465
43900	-240547	100424
44000	-240791	26452.7
44100	-241135	82588.3
44200	-241399	73139.6
44300	-241763	82867.7
44400	-242077	64577.2
44500	-242503	176456
44600	-242837	81985.5
44700	-243302	242182
44800	-243495	42826
44900	-243698	18174.7
45000	-243952	122123
45100	-244377	255868
45200	-244530	22824.2
45300	-244955	102597
45400	-245249	48409.6
45500	-245634	89455
45600	-245917	148871
45700	-246383	215765
45800	-246727	113033
45900	-247112	104995
46000	-247426	48876.8
46100	-247639	63410.3
46200	-247994	102830
46300	-248227	50375.9
46400	-248582	131067
46500	-248724	23889.4
46600	-249089	62623.8
46700	-249524	123315
46800	-249878	166314
46900	-250233	126675
47000	-250567	109641
47100	-250851	64289.7
47200	-251246	98608.7
47300	-251691	173620
47400	-251985	48320.5
47500	-252330	92656.4
47600	-252684	92629.1
47700	-253049	74669.3
47800	-253322	67965.1
47900	-253626	107544
48000	-253981	119061
48100	-254295	58391.2
48200	-254589	111802
48300	-254792	43435.2
48400	-255167	98806.4
48500	-255632	126013
48600	-255936	42063.9
48700	-256250	129217
48800	-256514	52520.7
48900	-256919	162371
49000	-257213	86989.4
49100	-257527	82005.2
49200	-257902	105530
49300	-258155	48483.6
49400	-258378	47923.4
49500	-258713	55542.4
49600	-258926	42097.5
49700	-259260	79703.3
49800	-259604	237686
49900	-259898	86700.6
50000	-260273	156070
50100	-260718	155414
50200	-260851	36901.1
50300	-261074	72269
50400	-261348	38096.8
50500	-261672	83030.9
50600	-261895	54140.8
50700	-262350	162733
50800	-262554	35039.6
50900	-262979	299584
51000	-263182	32311.5
51100	-263466	66586.7
51200	-263638	51765.6
51300	-263861	76866.3
51400	-263974	26691
51500	-264409	163362
51600	-264693	93379.7
51700	-265088	149044
51800	-265321	54763.4
51900	-265514	67668.8
52000	-265787	70716.8
52100	-266081	105398
52200	-266365	85675.9
52300	-266679	107089
52400	-267064	158458
52500	-267418	100283
52600	-267773	134502
52700	-268097	78152.5
52800	-268341	86517.6
52900	-268534	32834.4
53000	-268716	46967.6
53100	-269071	185382
53200	-269274	32089.6
53300	-269578	79203.6
53400	-269801	54469.4
53500	-270055	29551.8
53600	-270460	166406
53700	-270683	37438.3
53800	-271068	134580
53900	-271341	55506.3
54000	-271625	129926
54100	-271899	66067.7
54200	-272102	32296.6
54300	-272365	99442.1
54400	-272508	26554.2
54500	-272832	122084
54600	-273085	69395.2
54700	-273430	118395
54800	-273582	39011.8
54900	-273806	72121.4
55000	-274019	38071.1
55100	-274292	106089
55200	-274576	103317
55300	-274870	99814.3
55400	-275184	98112.7
55500	-275438	109336
55600	-275742	89531.5
55700	-276005	66286.2
55800	-276208	45085.5
55900	-276492	93850.7
56000	-276766	68716.3
56100	-277100	108091
56200	-277303	41052
56300	-277526	61342.1
56400	-277911	195708
56500	-278377	274988
56600	-278782	176658
56700	-279035	37535.8
56800	-279289	87581.3
56900	-279613	98079.7
57000	-279775	49905.8
57100	-280079	112976
57200	-280535	202636
57300	-280829	224676
57400	-281123	73047.1
57500	-281265	39920.6
57600	-281509	167890
57700	-281772	46623.9
57800	-281995	81232.6
57900	-282511	353444
58000	-282815	61604.1
58100	-283039	44712
58200	-283373	107696
58300	-283667	84526.2
58400	-283971	56300.6
58500	-284376	222709
58600	-284629	65833.2
58700	-285115	156403
58800	-285308	29518.5
58900	-285521	45212.7
59000	-285805	73718.6
59100	-286099	79836.5
59200	-286292	71730.5
59300	-286576	106343
59400	-286920	83174.8
59500	-287194	77434.2
59600	-287528	135613
59700	-287620	21722.2
59800	-287712	12945.2
59900	-288006	72726.8
60000	-288259	48172.6
60100	-288402	28359.3
60200	-288756	64247.2
60300	-288908	22396.4
60400	-289122	39313.7
60500	-289274	45407.4
60600	-289507	31659.7
60700	-289741	47273.6
60800	-289984	63946.6
60900	-290288	146127
61000	-290481	81750.8
61100	-290603	42029.8
61200	-290766	42889.5
61300	-291151	145870
61400	-291404	85245
61500	-291708	48031.1
61600	-292053	163354
61700	-292326	56257.8
61800	-292489	23377.6
61900	-292813	81816.3
62000	-293016	45089.8
62100	-293239	49730
62200	-293493	56799.3
62300	-293665	33687.1
62400	-293858	46312.4
62500	-294152	44639.4
62600	-294406	110380
62700	-294659	129035
62800	-294781	19726.1
62900	-295106	205791
63000	-295309	19282.4
63100	-295582	65774
63200	-295765	82190.7
63300	-295847	29450.7
63400	-295969	32074.5
63500	-296152	64630.9
63600	-296405	71637.7
63700	-296689	93648.8
63800	-296882	42604.3
63900	-297085	38249.1
64000	-297177	14455.4
64100	-297360	28396.8
64200	-297765	262749
64300	-298028	50130
64400	-298201	41464.8
64500	-298576	178932
64600	-298718	17789.6
64700	-298840	24111.8
64800	-299043	78102
64900	-299236	56655.8
65000	-299460	44404.4
65100	-299713	81079.6
65200	-299916	45194.2
65300	-300200	69715.9
65400	-300463	39313.1
65500	-300747	110585
65600	-300960	33191.5
65700	-301143	36845.2
65800	-301326	49669.3
65900	-301458	16205.2
66000	-301742	89478.2
66100	-301915	74973.1
66200	-302067	31127.6
66300	-302351	121877
66400	-302514	51695.6
66500	-302606	17607.5
66600	-302738	35853.2
66700	-302971	60818.1
66800	-303326	151625
66900	-303569	53923.2
67000	-303883	85516.3
67100	-304056	20602.7
67200	-304229	25773.2
67300	-304361	21955.9
67400	-304534	31950.2
67500	-304565	11550.1
67600	-304768	63479.7
67700	-305052	127723
67800	-305265	45691.5
67900	-305488	42815.4
68000	-305610	19828.7
68100	-305793	61605.4
68200	-306036	43310.7
68300	-306169	21238
68400	-306442	69515.8
68500	-306565	26736.5
68600	-306788	23944.7
68700	-306869	17968.2
68800	-307113	42934
68900	-307225	26320.3
69000	-307479	76488.5
69100	-307772	83320.9
69200	-307996	45502.2
69300	-308269	74571.1
69400	-308482	48786.8
69500	-308766	64359.9
69600	-309040	43033.6
69700	-309192	24305.5
69800	-309335	21491.9
69900	-309487	28724.7
70000	-309589	37969.9
70100	-309722	25353.8
70200	-310005	42291.5
70300	-310269	73077.4
70400	-310492	46458.1
70500	-310675	66695.5
70600	-310898	38626.2
70700	-311030	31950.7
70800	-311264	53138.1
70900	-311497	65757.2
71000	-311771	78976.3
71100	-311863	23020.1
71200	-312025	33735.7
71300	-312127	31092
71400	-312381	65722.6
71500	-312533	26260.9
71600	-312777	61995.6
71700	-312939	41235.3
71800	-313092	55552.6
71900	-313244	26049.9
72000	-313397	35807.2
72100	-313580	47809.3
72200	-313894	84162.4
72300	-314046	21953.7
72400	-314280	36531.1
72500	-314503	45313.6
72600	-314665	72219.8
72700	-314868	65136.4
72800	-315041	49047.7
72900	-315214	38586.4
73000	-315326	17822.7
73100	-315408	20329.5
73200	-315621	46657.1
73300	-315773	31036
73400	-316037	52725.4
73500	-316220	25926.9
73600	-316332	17430.2
73700	-316454	44999.8
73800	-316748	90824.6
73900	-316981	57651.8
74000	-317164	32798.8
74100	-317387	110363
74200	-317570	37666.2
74300	-317702	30277.6
74400	-317824	18119.9
74500	-318038	23810.3
74600	-318240	72214.8
74700	-318524	65089.4
74800	-318727	56962.9
74900	-318961	32086.4
75000	-319194	79985.5
75100	-319245	20855.7
75200	-319448	37848.4
75300	-319631	51915.4
75400	-319854	32846.8
75500	-320037	59672.5
75600	-320270	55029.4
75700	-320423	18861.9
75800	-320555	31836.3
75900	-320688	14720.8
76000	-320921	59721.9
76100	-321084	40129.6
76200	-321256	33795.7
76300	-321611	169030
76400	-321773	30909.6
76500	-321997	87598
76600	-322200	38747
76700	-322372	29852.9
76800	-322515	30276.6
76900	-322627	19120.5
77000	-322779	22552.4
77100	-323144	136886
77200	-323377	35518.2
77300	-323560	63277.4
77400	-323712	38854.6
77500	-323855	37954.9
77600	-323957	14048.5
77700	-324089	31876.4
77800	-324201	23544.6
77900	-324394	22218.7
78000	-324577	17569.2
78100	-324669	22900.7
78200	-324902	57812
78300	-325034	18367.5
78400	-325328	92512.1
78500	-325602	58336.9
78600	-325825	81941
78700	-325958	20869.9
78800	-326231	66047.4
78900	-326454	38598.5
79000	-326617	57328
79100	-326850	59101
79200	-327114	80738.4
79300	-327458	109504
79400	-327530	8687.68
79500	-327632	25456.3
79600	-327845	80512.1
79700	-328058	53110.4
79800	-328292	73779.8
79900	-328484	35332.1
80000	-328667	53279.8
80100	-328759	25745.4
80200	-328902	14547.9
80300	-329165	60289.6
80400	-329338	22407.7
80500	-329490	32174.8
80600	-329683	31786.8
80700	-329846	31346.8
80800	-330059	36616.9
80900	-330211	35716.1
81000	-330354	30177.1
81100	-330446	23350.1
81200	-330629	38732.8
81300	-330832	44826.2
81400	-330994	18042.5
81500	-331157	32550.3
81600	-331249	19211.4
81700	-331391	33774.4
81800	-331554	34098.7
81900	-331696	37384.7
82000	-331929	50085.2
82100	-332031	23928.9
82200	-332265	69669.4
82300	-332397	19257.3
82400	-332559	43017.3
82500	-332732	56815
82600	-332864	23657.6
82700	-333007	39267.1
82800	-333321	71461.3
82900	-333625	118321
83000	-333737	15224.7
83100	-334021	60218
83200	-334214	40812.2
83300	-334326	11546.8
83400	-334539	36057.1
83500	-334772	45260.1
83600	-334915	25562.8
83700	-335199	110516
83800	-335341	18603.9
83900	-335514	40986.8
84000	-335666	24271.3
84100	-335839	25035.2
84200	-335890	13029.6
84300	-336103	58473.7
84400	-336296	50943.7
84500	-336429	22862.8
84600	-336632	42747.6
84700	-336784	20772.8
84800	-336997	48161.5
84900	-337200	49708.5
85000	-337343	33901.6
85100	-337546	49186.4
85200	-337698	30225.3
85300	-337861	20137
85400	-338054	47004.8
85500	-338257	57610.7
85600	-338439	27645.3
85700	-338521	14323.1
85800	-338694	50739.6
85900	-338836	20343.9
86000	-338969	25504.2
86100	-339131	29271.3
86200	-339304	33874.4
86300	-339426	26298
86400	-339690	50933.1
86500	-339872	45624.6
86600	-339995	15746.4
86700	-340167	41277.8
86800	-340300	29399
86900	-340472	29122.3
87000	-340655	34768
87100	-340747	17062.7
87200	-340920	19452.8
87300	-341062	21066.9
87400	-341205	34834.5
87500	-341377	27740.1
87600	-341560	34505.8
87700	-341723	16083.2
87800	-341865	23963.2
87900	-342088	51632.6
88000	-342170	14025.1
88100	-342333	44417.4
88200	-342516	25959
88300	-342648	18329.2
88400	-342730	17091.2
88500	-342882	18408.9
88600	-343025	31511.7
88700	-343147	17966.7
88800	-343228	11991
88900	-343432	45985.8
89000	-343604	28777.9
89100	-343686	10696.7
89200	-343768	13178.1
89300	-343900	33510.6
89400	-344073	36985.6
89500	-344185	16188.3
89600	-344368	25201.9
89700	-344419	22256.7
89800	-344552	26798.7
89900	-344664	12794
90000	-344776	23540.6
90100	-344908	23969.3
90200	-345040	29653.1
90300	-345243	57439.3
90400	-345386	43284.3
90500	-345488	19474
90600	-345590	21519.4
90700	-345762	36679.1
90800	-345895	20855.3
90900	-346017	13602.5
91000	-346109	11189.7
91100	-346211	13309.2
91200	-346384	27013.2
91300	-346576	48185.8
91400	-346729	17757.8
91500	-346902	18912.1
91600	-346994	23812.7
91700	-347085	14357.5
91800	-347208	31861.5
91900	-347330	33088
92000	-347412	9862.27
92100	-347473	15730.2
92200	-347626	25895.7
92300	-347798	24199.2
92400	-347860	9507.31
92500	-348043	43487.9
92600	-348155	28747.4
92700	-348257	16765.7
92800	-348359	24230.9
92900	-348572	28744.4
93000	-348724	17170
93100	-348837	36695
93200	-348989	30881.7
93300	-349051	10906.7
93400	-349264	48285
93500	-349386	27034.7
93600	-349488	16141.6
93700	-349550	15064.7
93800	-349642	14322.6
93900	-349733	27386.4
94000	-349856	15580.7
94100	-349988	31109.7
94200	-350110	17493.3
94300	-350242	24315.8
94400	-350314	9807.85
94500	-350376	16107.8
94600	-350447	11565.9
94700	-350600	50006.8
94800	-350702	23193.2
94900	-350774	8085.33
95000	-350906	12002.1
95100	-351048	50388.6
95200	-351140	16161.1
95300	-351283	19944.2
95400	-351354	18381.9
95500	-351487	16204.5
95600	-351568	16579.5
95700	-351741	30404.6
95800	-351914	27104.5
95900	-352087	61145.5
96000	-352229	37273.1
96100	-352290	9271.61
96200	-352362	27623.2
96300	-352484	20077.1
96400	-352596	26918.4
96500	-352608	13730.9
96600	-352750	24361.2
96700	-352862	34463.9
96800	-352954	16109.7
96900	-353005	8187.59
97000	-353188	29602.6
97100	-353331	30090.1
97200	-353473	18864.4
97300	-353575	19129.8
97400	-353697	12925
97500	-353890	28144.8
97600	-354124	31296.3
97700	-354205	13892.5
97800	-354439	57566.5
97900	-354692	101910
98000	-354784	15913.4
98100	-354906	17361.7
98200	-355018	18891.6
98300	-355100	17668.1
98400	-355293	34410.6
98500	-355415	26166
98600	-355477	12072.8
98700	-355629	38376.6
98800	-355731	17016.3
98900	-355793	11674.9
99000	-355935	22640.3
99100	-355997	10899.7
99200	-356160	21832.2
99300	-356251	11437.2
99400	-356384	22368.8
99500	-356506	12020.9
99600	-356537	11678.3
99700	-356579	7139.86
99800	-356630	10228.9
99900	-356772	29085.5
